<?xml version="1.0" encoding="UTF-8" standalone="no"?>
<!-- Created with Inkscape (http://www.inkscape.org/) -->

<svg
   width="512"
   height="512"
   viewBox="0 0 135.46667 135.46667"
   version="1.1"
   id="svg5"
   inkscape:version="1.1 (c68e22c387, 2021-05-23)"
   sodipodi:docname="ro.fxdata.switchbox-symbolic.svg"
   xmlns:inkscape="http://www.inkscape.org/namespaces/inkscape"
   xmlns:sodipodi="http://sodipodi.sourceforge.net/DTD/sodipodi-0.dtd"
   xmlns:xlink="http://www.w3.org/1999/xlink"
   xmlns="http://www.w3.org/2000/svg"
   xmlns:svg="http://www.w3.org/2000/svg">
  <sodipodi:namedview
     id="namedview7"
     pagecolor="#ffffff"
     bordercolor="#666666"
     borderopacity="1.0"
     inkscape:pageshadow="2"
     inkscape:pageopacity="0.0"
     inkscape:pagecheckerboard="0"
     inkscape:document-units="px"
     showgrid="false"
     inkscape:zoom="0.8180949"
     inkscape:cx="223.07925"
     inkscape:cy="337.36917"
     inkscape:window-width="1920"
     inkscape:window-height="1011"
     inkscape:window-x="0"
     inkscape:window-y="0"
     inkscape:window-maximized="1"
     inkscape:current-layer="layer1" />
  <defs
     id="defs2" />
  <g
     inkscape:label="Layer 1"
     inkscape:groupmode="layer"
     id="layer1">
    <image
       width="135.46667"
       height="135.46667"
       preserveAspectRatio="none"
       xlink:href="data:image/png;base64,iVBORw0KGgoAAAANSUhEUgAAAgAAAAIACAYAAAD0eNT6AAABhGlDQ1BJQ0MgcHJvZmlsZQAAKJF9 kT1Iw0AcxV9TxVorDnYo4pChOlkQFXHUKhShQqgVWnUwufQLmjQkKS6OgmvBwY/FqoOLs64OroIg +AHi5uak6CIl/i8ptIj14Lgf7+497t4BQr3MNKtrHNB020wl4mImuyr2vCKIAPoQQa/MLGNOkpLo OL7u4ePrXYxndT735+hXcxYDfCLxLDNMm3iDeHrTNjjvE4dZUVaJz4nHTLog8SPXFY/fOBdcFnhm 2Eyn5onDxGKhjZU2ZkVTI54ijqqaTvlCxmOV8xZnrVxlzXvyF4Zy+soy12kOI4FFLEGCCAVVlFCG jRitOikWUrQf7+Afcv0SuRRylcDIsYAKNMiuH/wPfndr5ScnvKRQHOh+cZyPEaBnF2jUHOf72HEa J4D/GbjSW/5KHZj5JL3W0qJHwMA2cHHd0pQ94HIHiDwZsim7kp+mkM8D72f0TVlg8BYIrnm9Nfdx +gCkqavkDXBwCIwWKHu9w7sD7b39e6bZ3w8HyHJ8bGskpwAAAAZiS0dEAAAAAAAA+UO7fwAAAAlw SFlzAAAOxAAADsQBlSsOGwAAAAd0SU1FB+UKCAstJBUlQQAAACAASURBVHja7L1ptGRXeSW4z414 Y07KSZlKKTPFICTQBAhcTC2JNrMQRrYpQJSrXGO7bGyXkYde3Wt1dXmoKiNlCoxdba9a1eVyG4qy vWxsbMAUGA1IGINAEiAzo/dSUiqVmUop5zfE/frHi+HM99yIGy+mvbVCL+LGjSEjTpy9v/195zsA QRAEQRAEQRAEQRAEQRAEQRAEQRAEQRAEQRAEQRAEQRAEQRAEQRAEQRAEQRAEQRAEQRAEQRAEQRAE QRAEQRAEQRAEQRAEQRAEQRAEQRAEQRAEQRAEQRAEQRAEQRAEQRAEQRAEQRAEQRAEQUwiFD+CycA7 RGqvOHhwtZ+vcd111/GDJgY7oanBTmmq80ZG7JMT408L199wAzmCAoAYNRw4cEAG8boUAcTgJjM1 sBltdIk/IAbELxFuoCCgACBI+BQBBKP/5gSqxnkadcWAfpOCgAKAGADuOHDw0wry+mF8by948cux qZbzSyLWN/5X6/lq4078xWLAF3FQEFAAEP0i/YMHP61kOEmfLgAxCdF/P4m/6mftnyVYLAQoBigA iAqwHsV7FAAEyb/QX6hstlTmm+8fSQfYWap8jQQhIEq98cbrr/80RyoFAJGIYcrpUwAQkyoAqiD+ 4SoQjOf0u39aSXo+ugIUAET4R5QdOHiwMQ7/FAoAYpTJvxfiH7kVASLVCYJEIUBXgAKAaOL2O+/8 cJbnt47Tv4kCgBhF8u82x19FbUCV/xrp5ZFSwfMkCgG6AhQAE4s7Dhx8UkF2jeO/jQKAGDny74b4 uxUL6+ISSI81ABWIAQoBCgDCxPsPfvBzNVm9cZz/jRQAxKiQf9nnKxvtD9eSwW5rAHoRAxKrSaQQ oACYDNx+4ODDGeTqSfi3UgAQw07+pYk/8fxuCF+VvTOBSfsX6ZcjdAoBCoCJxi0ff2T2Nd/+5LlJ +jdTABD9mK6q4v8y5J9ybirpr5/9r9FsqYi/jBjoUgg00wKpj6EQoAAYWYz6cj4KAGKcyL/KKD75 nJJk3+s/s0wEX/iY1Bx+iVw/3QAKABI/BQBBrCP5pz1HEqlXKQz64gSUbQKUEvWnOgNlXQEJ1SpS CFAAjB5+8wMf+rl6Y/mDk/45UAAQw0L+yVF/5LxYX4Aiwi/jAlQ1IacQdPC8wmg+heRLCgGmBSgA GPVTABBEdeSfGPXHyLuL+4oIf91aASc5AEWCoIDIi4i7DLFTBFAAjCLef/ADH69J4638JCgAiOEg /6TCva7I3e8EqCLCT3EI/CqiOMaXMk5AQf4/Fv0n3Ne7EChfWEghQAHAqJ8CgCD5J5F/V8TvOR4i 9kIx0I0gSI/7SzoBMQcgRMYRkq5KCNANoAAY6qj/zg++t5avfoifBAUAMRzkXxz1h5+7FPEnkn6M 7JX74NITtcQkQAnSTxIEoeg/SNSx4r7Uwr9yBYIUAhQA64I7Dhw8rSAb+ElQABCjQf69RvY9H0sR AolioAzpm2eEiD/kAvgi/UD0X1oglHMDKAL6g4wfQTkcOHBASP4EMSzkrwqr9/0k7x5vH9OOK1V8 TKUcU2rtmHa8dZ9+e+0/aOdGLu3zVPu925fWiUr793Xuc4+vvR/zuH3M+fcAxptyihy1cxG4r0C9 +R8fwN133820LB2AanH7wQ/+Uiar7+cnQQeAGA7yrzTqt8WARxzos6Ud6Zd3A8zptx8TsUTTAT43 wOcE2BF/qisQsO9DUX+KG1CyLoBuAB2ASvDvf+t37yT5E8SokL8KkryP6JUvunei/UD0r0fOnsjf jviNSF8h7AT0fIH2Or7IP34MPhfAe1t3BTRHAIHI3+cSpLoBocfSDaAD0C+wyp8OADE65O+/z32d wog/Et3rbkCRE+DL/4f6AFQ7GYuelo8edyP/8O00V8DjCPii9x7dADoBFAAkfwoAYmLIP/YY/31l iN4lfsv270IE+Cx/3wqAqslf49ECARC/7YgBo9gvTQh0lSpIWQFAEUABQPKnACDGn/yrjvqj5B4j c8/1wvOsaL/wWFUiQDzr9x1hECN8674Y+RtRe+y+wHuLuAEUARQA6wcRdeDgwZwfBAUA0adJpyT7 lyX/UlF+kPj1CD90vYD09Zy2L9JPjP5VQTPAon4AkiwAwmIg7bpfCATTACnCICYOuhQBN19/fXZS KQZ4FAAm/m+RbNPBgw1+EhQAxCiSf0HUX5bgPY9NcQRCYsAX/ask0ld+cvfcLO7Y59ryfgFQ7npU CMREQcANKJ0SKCkCRKk33nj99Z+mACAAAO/4xjemX/GpTy3xk6AAIIad/MsW9Znn+4m9iPjd+8sK gBTyV6UbAUnB1TJ5evN6IenrKYE2ySe6Ax43oDglUCwCok6BB5OeEqAAAHDzx5+Yv/Hb//0MPwkK AGK4yb+s5V/meuyYQeoR0vfb/8XkX0T8CVsCwZcTKEv6hWKgTdTlhUD8NVAqJUARQAFQCQ4cOLAK oMYpmgKAGDXyD0f25u3OecnRvXVfTAA4RG/l/nW6d9+jfxpW5dnfJHjnj0XIxiEfKfsEgP+YKwTc 1EDUAYimCAKETxFQCSa6EdAtH39kluRPECNI/ipu6yujUY9L7gbRKwQa9ZjNeqKXLEPmOZ6prHM9 y8z7MgWl39+6ZAoqW3tOlWXNczyX9nnNS/s5mu/FOta5bb6m77r+vtz7fA2G9M/V01xI/6xbysd3 HSotXRJrGtTFyopJbRg0sQ7AO/5Iaq84dHCVUzQdAGK0yL+s5R+19gsi/qS/gWPh92VOvcr8X5cT sx5Rm8fFcAPi1fyxY3Y073cCXEfATgsUuQHpqwboBPSK+kTOTCLqFQdJ/gQx2uSvuwAFNn+Q6Lsg /IgQUJ03ERACHXq3ib/I9lcO3es39OfUl/spKAig1m6v/XulfV3UGiOr5tPox/zvwLMCQWl/Y3e0 DwmgFAQCJYCotTensHZdtYhbrT2+/Xb083ThFRIBvvMLsFlETdISwYkUAFznTxDDTv4llvT1GvXr qQGH2G2hoPW8DzxPkQsQJH5dzBR9ZsYNsYLe1vtpCYHO7bYocESAfkwTA5D2Oc3T4mzaJPkmx2t/ BUppzweBEgVRWCN8WxC0iX9NsBgiQBcFiSIgFR+/5578hglyxicuBcAOf+sDpgBI/oMm/27+OsQf FQdxF0AlLxEMkL5KmKQD3f46YqBzUri6X08TmFZ+OA3Q+SuCjhXf/Ltm+5dID3jTAO4qgfL9AxLu 82BSUgETJQBI/hQAxPiRf1kR4CN3h+QLiD9ZVOiEbxO9tULAaEZUCuIRBOK9LeJeTyPpAmFgCAD/ c4ZJ319j4AoCigAKAJI/BQAxhBNJuX1a08g/oYGPs9TP/Bsne20FgCfy14+tFbeXFQEanVv2v038 PtJP1lP2cj/jjy4E3OtxERAgfU0Q+J0A6/ERVyBaYEgRQAFA8qcAIMYr+u+N/P3L+rqJ+r1kn0r8 hSLAJH897x/uERCelsOtAEJtgT3V/zr5S/hYOHoPHzOdgGJREHQDHPL3rTygCKgKY18E+P47P/he 5Cz4J4hJI38v6QcFQFgM6ITvI/5U8ldaUl9B4fFt+7B7DthaAzai96Ys5wGcFODIErDt6OJabaBa IzvVrN5bK7prFfX5j0mrGLC9cmCt+E+0QsHWv1OkTI1981RlrhBoFwg2/7ZXCYhdgKgV+xmFf1ah oHO/a62oEiLg7rvvlnEVAWMvAGr56oc4RRPEsJI/ksg/Pc/faUpTSPrWOV4XwCB897k7j9ffu1s3 8MS2fXj+RmC79i+9pOLvYhbArAIunAWwd1/7+GMCHD4l2PPsoY4okOZyQDTJcO1mu8rfXgEAg/xN IYDWY+3rHcb33lrj+bgY6KwWqFoE2O9zQn+/4/yPo/U/ODAFQPJPI//iTXuKyd9D+sHo3ur8ZxC9 bvlr1wuifl+R4NOzW3HRrs24cAi/t8MAjhw/h51njqKTKtD+Orn5zrGOje9eN1ICbdtfTweEawJC dQXFjYjQQzqgYHMhC+PoAoytACD5UwAQw0H+4Z3vijv6he3/WDQevu4KgADRa/eFcv62CHjsgv24 esuanT8qeBbAd59Zxe6TT8BfoOcr9nNz+x0CNwUALDEQfpxdB5BA/iERUKZj4ITXA4ylAPjND3zo 5+qN5Q9ymqYAIPoxaZSp+FfeavbqyV/rRx+z+e2o3yb9RBGgP8f8vn2GtT+qeBbAk08ex8blMx0y t1yBdkQfifA7BB5wA2wBEHQEQmIgTQQkbyU8wSJgLGsASP4EMRxhQ7fkj6LlfakRv1cAWFF/RAQ4 xN98vid37scPzY/X17oFwJbd2wFsxyPLwJYji80cup5f19oHW7f171ySrHWjIgBrNQCduoBOUSCM AsVWrUK0JsDJ/0eKFUsWBdIBGGLQ+qcDQPRxwugx75+2kY8/4k8hf8fi9wkAH+EXkH7rec7t2Y/L pybn+z6UA7XHFzvRfTuyN10B1wnQon+fI6AvDbRu95QWiHYPBOsBxlkA3H7gzu9nyJ/DaZoCgBg+ 8k9p7BNe6hcif3srWv/Wvs6Wv/bjQsebt1cv3o/n1if3u1/MgbolBNr2vZPnN4keEVHg1gUMUARM YCpgrIY0yZ8g+hUpqFJn+0VBEfmjJ/L3En3I8o8JAe3Y8Qv34yVz/P73ZQD27tMcgTWCbe+1pzns rSWEglb/AH1cRCjW2lGwMB2AUJ8Apb8zd8lfyPKfwFRANi7/EFr/BNFXBVAi+i9yBJT35HLr+hPJ v33JkPmOZ2v3tW5nSiHLFM5PzWHffpK/jb0ZsGfvPhzZuX/tc8vWPq+s9dm1Psus9dmmXBAWZM73 72nvDLvNsj0I/Xsrq8DgTR3qd99998hzzlgIgNsPHHyYP02C6BP3V573d32FWEvdQvK3c/leku+I AP3SIausLQS27N+Pyy/exS8+gpfOARfv26eJqqwtCPzEnwW+kwRXxhAByuiq6Csa7YgBve2yTewq KnYnRQSMRQogg1zNnyRBDB/5I1r0V0T+Kon8i6N/nVg8UWfz8vj2/XjlRn7nZbBn7z4sNtMCSqCl BjopAmn/ByMtYJ5n+//QWgZbXQNbaYBmaqBt3Wt/9X7FwZUBQcu/ZHtjOgCDA61/ghgKqVB4NLrW P2D/u0LArsxPJH/dls60iLV53479JP9usS8DLt67zxPxZ/7PXyVe2mIv0OsB4U6MZvQP//VYtD8h qYDRFgBrO1EQBDHw6L/o8f6K/9Zfzbj12P/+6n6vG5B6aZLR+al57Nu/H/P8uitxA05dtL9D/Jkt ukrUAjiujT0W4GnHDP9fxOoBqkkF3HXPPW8Yxe9spFMABw4ezPmzI4hBk3+5vL99TP+bbPn3QP6t vPXyhK3pXw9cMQWc3bcPzxzqrBQoN0mLS8rtTYf8KQFpbllorAxAZ5Ohtd0M+5sKUCJ/jRFcVj+y DsDtB+78DH9uBDFaYiKe9/ddh0P8UChF/r7Cv5379+P5JP++YL7pBvg+//RVAe0v3+zREHKGPEWB zmoApgLGRwBkyH+YPzWCGPLoP9bmN1rxXx3x28f37d8Pru7rP/bs3YfDF+xL+k6c9I7S8/+WGHBq A2AsC4STElC9pQIwvrvmjaQAYOEfQYwA+RsTp3tNOSLAtf+7IX7lkEzWvuzbv59f8jriZZsVnt29 3/gOVCk3wHQFVEcRIF4UGO4PEFwaGIr2S/wmRs0FyDhECYLot5gIWv8+B8C43WWRn1WJfnJ2C/bt 38cvZQB40TSgjFUCWbgxk68IEH4hECoK1MkfTsEpClMBIQtgHF2AkRMAtx+88yn+pAhi2KP/sPUf zPtboqDbS2Y1nnnigr24evcF/IIHiD0KmNm3L607o4/4nf/gLBFsCwH0lgooXtA6Pi7AyAmATPKd /DkRxNDJB0sMeISARywYeX941vh7LmZEGL88vmM/XnkBjc5hwA4AGx0R0E06QKsF8PQKaI0vOxVg D9BwKiBUEDh+LsBI/TIY/RPEsEb//vtD1r/vukn6Rt2XUxAWEgE6mTy2fT9exeY+Q4Ut8DkBsY6N 9soAtGtCnIOIpwKUj+xLRfvj5wKMlABg9E8Q/Y7duzhbqQKh4EsB+Ar+UvP+cRGgVIbj89vx6k38 bofVCagXiYBA8Z//vsA4CqYCUgoCe18WSAFQIe44cGCVPx2C6Ev439OpKtEdMLv9wVoiiC6qwsMi 4KUXMvQfZuwCsHzxvoI0APyWP9JrAkzCLigI7EEWj6oLMDICQAE1/mwIYriif1UQ/ft29/MV++k2 rvl6reVeobXivnX+rPYfBTynBjy1c3+09W8sLeDJDcFpIKWNR/9eASoc3UeWBY6LCzASAuA3P/Ch n+PPhSCGL/pPEQOOKIAVpSFk/Wtzu7f4D94mP8To4CVzwOmZzaV2cdTrAPwX3QGwawL8ulZVF/iP lAswEgKg3lj+IH8qBDHM0b8qjP6BSJvfBMs/mPdvHttO8h9JXL5ra1jYwe4KGFoWGCggRUpBoDmO J8kF4PoYgmD0X0H0HxcOypPvj0sQn/XvioBWhHd+z34w6z+62LN3X9IugbYTBMcR8KSUHCFQ4AJM EIZeALDtL0EMOvpHD9E/vNF/sQMQsv7dxyzVZ7ir3xhgZu8+N8oP1gegLf68PoAuCMq6ABX3BRjm NAAdAIJg9F+C7LuN/n3tfgONfpSb83Wifu32Cy7Zze9zDLADwGPb9gdXe0C7DatbYKwgsD3uunYB eu8LQAHA6J8gxto/iEf/llOASKOf5hlmxTe8+f+tzPuPFf7BRn15J6yVHvC0CYZZEOgdW6F0AF0A OgAEMXHBf3+6/qVG/6E2v07k7+R7TUHw2Lb92Myvc+yw064HQMgJgNMfAF53qZwLUC7aH20XgAKA IIjKREVK9A8URP4I2f+mC8BOf+OJKQCHd+xziz8tJwBGCgDllgaGugTqqwAmoDBwaAUA7X+C6ANR 93h2qJd/kXsQzf17cv4I5Pxb1zfR+h9rvGze0+kRyiz8s0WisxzQ02Aq6AKo4vEfXBI4umkAOgAE MVmhevWnWj3/Q+v+W2c40Zl2r5MC8Nj/K7UpbOM3OfYwVgU4aQB3lQgK6wEUzMbAlhDw7hFQvaym ACAIYsTFg6fDuvKfa1qwsdy/LQT815+/dw+/iwnAduibAKGd7092AQIrAozugOYI9pK7SuT6UZQB QykAaP8TRB/4Gz0W/6W4A1q7X/uk9Kr/sAg4upPW/yRh9959xp4RvmJArwvgk5p2d0A72k9i83Bn wBQMWxqADgBBTI4C6IMpYBX/Wf8v3OgnMfpvTfAvm+fXOEnIADy5+WIt+jdTACEXwJsH8NYDWEJg wooBKQAIgtxf0hFIaQyUuNEP4sQPLbI7tZvR/yTiugvqZg1AtBbAdgA84lPFlgSmFAOOz6LAoRMA tx/44C9xyBPE4CRAeue/WPFfymvaDkA8+r9qht/ipOKxbfusxj1Ky+X7W0cHlwY6oiDQG6BsZ8AR TAMMnQDIsPp+DneCGDILIDLfqUCVVLD4T3cBYEVvrVtKEyOM/ice/2BjJ6VkrwhQlhCAPo5iSwLb z2cLAV9nwPFMAzAFQBBECUegqPMfUNj0x3iMu/bfWPfffH1G/8SJ2W3aeNFcAH0cWakAuyDQFaep BK/6LqgpAAiCGHDw3639b59TsNWvveOfJ+ffEgGPbWP0TwCXX7jJT/7GONLEpEcBeLei1serJw0Q GsPjsK3wUAmAOw4cfIjDnCAqD+ErPzXZ/lcx61+btK3rugh4JVv+ElhrEay85B92AMxCwEBBIOJp gH40BRqWOoChEgAKcg2HOUEMq39Qrvq/dcu1/u2oH64DgM4ET5uSaCG/eJ9WGNqh56ADUJQGQLk0 wLjVAfC3RRATQt+9mgcqWPxcpvrfv+4/5ADM7KP9T3RwSQYz2vc6ADAKAf1pAN84VaV/XKO+HJAC gCCIctOW1/+3RIAKtfy1xYB93Sz+2634rRAmHtu2D3oxoOMAJKUBImv7lSkigt0Cg8sB6QAQBDEU nN6H/L9nnlOeIml/y1/XBTDt/86xY7Pb+f0RDq7eCCPaV6pcGsAfySfsA5BM7qOjAIZGALD/P0EM syOQYHYmKYhE+x/A83Zt5FdAOJiHHe17RIA2NPWOf+HGQB4nIDR+K/p3DEMhIB0AgiAKHQGV0Pys swGQv++/m/tHkPwVFC7gV0AE8MT2fYYI6IydglqAWCrAWg5YWiOPICgACGIC4vfKnzWyNbBRA2Cs 908n/1PTG/gFEkFcvkEr5NNXAzjugCrF6cqO9FWRMzDa/QAoAAiCSDY2lW8yVf6JVHknwWLyhwK2 XbSDXwoRxGZt/Dh9AeyxVUkdgBqbqJ8CgCAmgtVLzFQ9TGqqRHzlJX8nzFLYw+p/ogAr2ZRJ3tpf e1xXWweQMtpHYwAPhwAQoRAhiCHzBIons9T1/51UgE8IwF7CRfInErC86yLPkj1rLDkiIGG73wro PxXbRQY62oeCeA8cPNjgcCaI4TQPVOLupx0RYK//T2n92/l7aCub/xDFuHQKdubfoGe/CPCN0ZK6 t0I98Kf33JPTASAIom/xe/XPGp4llbvzb4LIMJ/3uez9TyRgujVmvCkAc4yWKfB3Rrcq/lGNqmlF AUAQRClXoMiiD8RWTvRvHuvcx+5/RBlNqqy/RvRvj7eYCHAKAe0tgsp3BBz2oUwBQBCcRXsWBSmv EbX+tViNkxKRisea/QDCNK3ChYD6yFexlTBqfEJ+CgCCILoj8W4FhArUFKhAGEcQadg140b/sNtK w2J6/aoKLFetZCgO/2CmACAIsnpPk1vRCgClYo8z5+1FFgASJXBRzV8IGByrOvP3RNbjsTUwBQBB EOWjGFV0UHnCKBWJ/teu7p7lJ06kYyYQsbvNgODJ/4erVSbFiqIAIAii9OSngoaDMmZaVfI1L5jm p0+UH69KG3AKAU+/m+E/5jqAAoAgiACZ+zIJiWuhonOwf/0/AGzhx09UpFe9CwC6WApIAdBPsAsg QYyNK6BUZA+A4HN2/tIAIMpiRU2ZotMuBoRPCXQ58lXXP48gBtkNcODke8fBg8scwgQxijqAJfvE 4HFs0y6vmOxK0nqaCPV7qA+yG+DABYACahzCBDEuPoD/UbG0gurpuYlJR206Kx6nKp3Qu00PjOL4 pf1OECTp7p5U9fZEqnzQRhAO5mpFw0cFh6wqPXLHif4pAAiCGJSoIIgKMFtDudWqETUwaeOcAoAg iAGIAlXpsxGTi5oqHlaq53GsBvQ7oQAgCIIygiCKBUBXof/kjkcKAIIgSPDESAsA1evwnNBhSgFA EARBjCykeen6wRMMCgCCIPo8PRNE/9CQCobdhA5TCgCCIAZI7UKhQPSE1by3kSsTrAQoAAiCGECA RMInKhIAEh5WIpHRJmVG5XiOVwoAgiBZD/aFaAIQPeBco2jsyEB/OMM8rAcuAG677TaWCRPEiKgK 6fLB4pkOpafnJIimAFh1x5EUkXEXY0/Snrk0brjhhsndDIggiAmwF7THiYxepEQML+bOnEKhjSTp o0y6vH8Uxy8FAEEQXTK/eI9I6ecUj1NAEGnYtnTCHFGt/xUwdbguQBJPHn1QABAEEaR1KRHniHQU gBvli3ZMghrgND9+oux4DQT/Yo076TqBNabhPwUAQRAlFYD3sMQm5sh99tz9bIMfP1F+wIpJ+YVj u1ubnw4AQRBUAF4FINbFFgHidQb0v0eX+ekTPQxZMcejt/i0guFPAUAQxBBPiP2euewJNVwjIIFk a9sF0P5ue2qB3x2RjGNFvC2WPjXOMMXqJHoAFAAEweipj48XRy4UuQAEkYojS9oIk2bM7yvkkzSx mv6zGI+CVQoAgph4/pceHptC3BKopPK7AASRitqJpwERb/Qv4hvdYhgA0rrY47iSIoHhH8wUAARB pJG9r4AqeY4zI393RUAncuNKACIVm5ZPa8NH/EsA7VUAgXE8aW2Ah0YAsBsgQVQd1ffxWSMKQKBF VeLeqxO/E/0371lY4vdHlBCW2uhxbnnIP9irQmy/QCxxEPLKuu9sNcgugHQACIKIRvv2dRjTq+cx 9moAia0EsFMBa383PslCQKIYR+zo3RCUnnEmacI4uAhA0h4zSt4BBQBBEGWmQe/hjiTwrQ+UoAgI pwIIIo7FMx2yjxUAlloBIKZgKP1TGTFQABDEJHB4v18gYXG1XwToYqBjtJ7jt0cUYM/TiwimAMQl f9FcKbNjZfkVAOMCCgCCoALoqfo+NImGRIDbksV1BL5JBUAkDDwx/iJA/tJxB8SN/cXO/Rf5/mNk Ug2NAGhk2c9yRBPEcIsF/3I9cc6xL+bs6Ub9tiPAhkBEDN9btUWAmQIwyR/Frn6oABCpS11H0yUY GgHwy7/wC7/NYU0Qg4j/ix/vzdV7nAPxtgQWrxDwiQCIzykgCBNzhxchHvIXq/WfS/6R7n9idhAU a7iHVgBIlz++Qa8AGCoBQBDEsCmIlKbo4iH/0Hm2EPDn/1sz77e4LwARHJoB8hdrFUDb8vf5/6Gi 1WpU9igIWAoAgqANUJFWSCmmslcFWCJAm8jnDjMNQLj4/qoelVvkb48pi/gNX0r8+f9JaAFMAUAQ VABOVFXGGAjVAeiT61q+P54CcCbs5qQsAqzyCyQszLbtf/HY/1otiYf4Qz+RQDPh8i2CRyb2H0IB wI6ABDG8BkBKHYC0D9hTbmtytolfL/7rpAFax77MvsCEhhyI5v6jy/8K1v93k//vFsOQ/6cDQBBE CVcgod+ZpC4HjKcBWscuOs40ANHBl85CW/pn5/41B6DlInnW/ZvWv6dpUAl1LWWO0wEgCGKkbQCv B+ATC/7lgG4awHIAxHQARASHuRyAaOKSY4vW+v+QAxBe928QtbibBIV/NDJ2K1MoAAiCCiBI4pET jb/efQEC1mu7JgAeBwCuIFhepAtAAN9Z0cZK3TT0yAAAIABJREFUUwS0agHE4wB0KLuE/Q+xNhQU SKmf0WhJhKETAKwDIIjhMgDMjYGk8CQRQdKG6kZxYNwNOMmvceKx4clFD+Gby/50B8BwARLsf7+S DY/fUV7/TweAIIhKJERxGkCsi11Q6BYG2m7AiQW6AJOMw9CL/8Sf90dHHBRW/3vsf4mOd0n+SYyS B0ABQBATweH9WA5opQGs1QBhJ8BKBTgOALxuwFl+i5M7fA8tastKIyJATyXZ4b8vBVDC/h/HUpSh FABMAxDEesbw5fRDWCBo9QC2EwDbgvWLgVgq4ChdgInE42Ll+rUUgPisf7Gsf+/4M1euePtYSdlf U/GvbJjsfzoABEH0JCHEZzCI2R5YfBFYIB3gEwL6pH6KX8TEQT22aEX94rb9jTkAwcI/SRznsaLB hON0AAiCGDyH93E1gK8pUNI2wZYDUOACPE0XYKLw7RU90jdFo+g7S0qn8M9xAASGY+AVATJ59v9Q CwCmAQhiPWL4MvpBEgSCeMnfXwzoqQNIcAEeZX/gicGGVttfJ/evjQun8E8sB8CK0iWB3MtW/4+g /U8HgCCICowFsf6aQqB4WWCaC9C6qMfpAkwCHnhmFea6fzP3r0f/vvw/xJeCghnx6+Qtnt7/NuFH dO8ougQUAAQxWWzdVcRf7qliLgC6dAH0vgCCL5xo8LscY5wGsPvk4866f73yX4/+7a1/xbO9T6z4 T0JkPuZdKIdaADANQBAV839F0b79bLEdAs0lgZLgAsTJXwTYc/IxPMuvc2xxsrnsTxeJ8FX+O7l/ T9k/jOpAMwXgbWod+LVIqPnPaNr/dAAIgi5AT6eGJlIR/5LANBcAjhgQQwys/X2GBYFjiQfOmkQP MV2hzrr/cO7fWAPgW/pnNwASfZMhjxPQZ2FNARBAI8t+lj8JghiUCyBxF0A8EiC4JLCsC1DkBAi+ +PQyv9AxwrMAdh9b9AhDq/jPyvv7cv+h6L9D7lLiFyGV/JooAEril3/hF36bPwuCGCVnwXUBRFJX BISKAX1OALD71GE8yd0CxwZnDlnkbwtCu4OkCMQb+4ejfwlF/8EiQfS09n9Y7f+READNz5gVPwRR KVf3VgxY1BnQ5wKE2gObE7U+TYu7BMxzWeJugWOBRx8/HPm+O6LRqRUJrfmXWPTvieAFXS/xowPQ R/zibbfV+fMgiCGT5VGx4FkaGHAB7Fnc6wZ47F799iLrAUYa31gGphrLwahf3znSsP/djD+clSfe 6F8qiP5Ht/hvpAQAQRCj4wJ4awECfQHMHu2ebm+ePgChFMJXnjrNL3UEcQLABU8uBopCJdgJ0LvN r3h6T+iV/6Hcf5fr+EfdGxgZAcAlgQQxGi4AYi6ALQSChYGd4zYxwBclCrD97HF8Y4nfyqjh7CEP +SNg/cMdC6ZaFGeMiR3Zl8r9y9hG/3QACIIuQH9cAPH91QWB7QBIUmGgXQhoXzY+uYAncn6vo4In fOQfcQJCRX/tJIDXAShY9z+h0f/ICQC6AAQx3C5AeKIVj0gwW7QWpwP8joAdNa4cWsAZfjEjSP6I rABAgvVvjafYZj/edf+J0T/GI/qnA0AQRAUuQKAvgJj3h5cFStfpgFBNwLGFBbBDwPCTf259b/bt 0Hfut/49LX8tEZAeu0v0rnFZFzByAoAuAEEMu6AI+wH6CSLd9AcI1AR4LocXFsCNA0cg8s8LvmM7 9x+0/sVc6udZ9pce/WOsc/90AAiC6I8LAM+2wc6OgbpVK9btMkIgfu4TFAFDS/554vcJrxCIWf9a M6C29W/9hUSifenWG6ADQBeAIEY+dO/qVAkIAjcV4J4nPiGAlL0D4gIhb4qAc/x2h578c0/Nh7kR UIj0JW79FxX+xXYDHOPonw4AQRBdRjZSOEFKQYTlaxIUbhAULvpKEQFPLSzgBL/i4SP/PGHVh074 2rjQdwWMWv+xZX+pO/6NYfQ/0gKALgBB9MME6FdBoET++q67FeHObi+xnvGey8mFBTzKpuLrihxm wV+I/PPUlI+X+MtY/wXRf8TyGuWe/2PpAAjUEf7ECGI0BEVwVYD4rhfUA9j/JRKIemwBf3eW38t6 4ASAw4cW/cSflyj0RBHxF+3yF2j0U+GyPzoAA8Av3va+3fyZEcQQuwDwpwJiDYLseoBuVweELrue WsDiwiK/6D7i4fPA2cXFDtnnfuLPY9G/t+hPSwFIKOrvwvrvcdnfKEb/Iy8AACBXtZ/hz40gBikC Ch7vSQWEGgR1JvgSboDvkkcukkMkx+LCAtg5uHosPvY4tj+10P6c1y6xor+CZX828dtjQ8zVJl1Z /z0U/tEBGCB+6X3/5j/lqvY0f3YEMTC5UEpQhFMBLvG728Aijfyd434yOrKwgL9nx6BK8CzW8v21 fNX7+eeStyP+vKCboy/qF2c8mJX/jgioyPof1+h/LARAUwRs58+PIAbpAiSkArTwS4Ag+fuLArvt FeASj32ZP8yUQK/48lng9OIi8jz8OZtCLIX8tWJPjfydoj9dBPiW+nn3AkgQrzLe5D82AgAAVmvT P8+fIUEMswgoahkMI8o3iR+eFrEoWP6XF1eX5wLJOymB77NrUCmcakb9Fx3TLP+8i0I/8ZO/Wfwn zvhok7/xN+AC+Eh9Qq3/FsZqKd2BAweEP8nhwHXXXccPYVwmCaV6PFdBP6yf076uVHMyWju3dVz/ a19fu905v31B8z77uHOO9Vzafbv378M0v/oovnJiGbtOHTZ2aETSxj6x+2OWv0cc6mTvzft3af1P QPQ/Vg4AwN4ABDGMLoCzY6CEWwV7iwLhXyoY3CwGBevK24WAlkWtuQFPLizgiyfYNMCHR5aBxw8t NslfjKi/83maqZcybkA0359A/kgh/wm3/sdSAADA59/85jn+RAliuESAWw9QpijQjv7E0yY2bYOg Fvn7m9LkRoX67mcPYXFhAV87z+8fABbzNbt/y5MLkDw38v3tzy73FV82z8sDwkyL/sPkL+FiP8vu L877I2r9T5KNPHYC4M9e9KLzAsXtwAmichHQ27nRosDSIgAWgaSuDvDUBeS54wisHVu7f/ORBSwu LOCRCV0z+IQ0q/sfW7BIPG8Tfq7XXOTFrZlT93UwyF/ccWE4R1r+32b6Khv+jEv0D4xZDYAO1gMM FqwBGE/0Xg9gHW/n/s3rvhqAzl+3TsCpD4CnBsB7DE7+v/3cnloBADh+4X68ZAJ8xkeWgS1HFptu SqvIzmzAYzgwdh7fU9Ufe4yv2l/04r6QOLRdAGO9f2reH2Pb7nciBQBFAAUAMawiIKEosFAEeIjf InhDEHhut8g9TP4wCwTbr7P2mNPTG7D/oh3YMEbf7SqAr5wCLj6xaBGwWMV+MQK3uvQVCoBQmidC /qGKf5J/KdTHeaISpR5WItdwyiaICn9XIskiwH+uQNCJ9vVzfNdjfztxjDT/KHQoQL/uvAVAae/D uq1EAKVah6FU83bztRWADUuncXzhDJ4GcOai/bhihJcNfHsF2Pjk2qY9e4AOiWtL7NrEXUD6dpte H+HDSt+0CDiU6ikmf8TJP1r0N1l5/4lxAOgC0AEghtcJsI/14gR4HYEyKQK4ToCdAvA/V8vR6Bw7 f9E+PH9q+CfXDun71tKLZf1bxB8r3PNE/V4B0JXdHyL/gor/gvX+kxj9T4QAoAigACD6N32U0ADr JgLSagRMwm+LASctEBYCelrAESLN2fXQtv24fCMwDK1KnxDg0BngkhOLWgV9iPx9Ub9F/HrkX5L0 S0X8JcnfIXSu959sAUARQAFADN4FCAmGbkVA5/kizYM0ck8TAwXXE8jfFgGAVjcwtQH1Hdtx0RSw sY/fyxEAT54Hthw7jKl8xSDQdsPcAvI3iF8nb0cE+EnfLwDSSV+v6PcX/MFd7pdc8Y+JzftPpACg CKAAIIZABOhV/z2IALtzoBP9+4i/SAxYTkDnuukCpJC/8Vd/v7ogaN5u3Xps2z5smQY21oANtbUC rRlrkm40L8sAlnPgbA6cXAHmnjmOjStn2kRo5sUlfD2F/GPE70sVhKL+iBBwUgA6QZP8+4b6JE1U uar/ciar7+eUTRDVoUxRIJrFdUXPUVQYuDaBKyglzadsFeg1+cKo/9OLBJP/VWuPE52Bm68pZkFg 4V+sFRWKUlAtsmsRf4v0FHDx8YX2q5/RIzQVeHsApgHsaN7MnY1wxDjXIFcf6QOFhO/L1Re7Bf5j xQJkcOQ/MeJ90v7Btx/8wGcyafwwv3o6AMTgnICkHgEI9wzovj4g4gZokb4b/ftdAPdvJ6LvPLcW 9UccAH1GVknTc2ijm7AQsIlef4yP6INkbe/EJ3Z73ljUXzbPH1ve1x/yn4TofyIFAAD85p2/9cl6 vvImTtkUAMSIiQCjjsC2/8P1AbHUQEwAuPe5f0NCwycCOhrAonhbGBTN1BIXBHqXRYPwuyB/JETu OsnHLH73b4EICF4n+VMA9ADWA1AAEKMqAoqKA7tzBYJCIOoIxF/POGYTv/LE+oYZUM4BEHHv87Vb 9l/XCDmhNsBbIxDYoCc12g8fq4b8g7ppQsl/ogUAALz/zt/6Vi1feQGnbAoAotpppdflgd7jVgGh v1AwxRUoIv4e/haIAL8b4BECRbN0mOkgxv1pQsAm9yJBUMYxSI72rXx/kPwDS/3CHwuX+1EA0Amg ACDW0wYoNbkki4CSbYSLSL8daeuRfpfEHxMDznXNDXAdAFVyghab771iQEwWdQg+Hv3DyMn3Svjm MUSL/Uw9U2adP8mfAiABdxw4eFpBNvCToAAgqtQAqpLzCxsIGWLDJXwf2acJAj/hm+cWiIFI9O+7 7YqBQu4PywGxjkna9eAqgcKagVTCL3rNALH7iJ7kTwFAEUABQIy3CPClFUr3DvC5ATFBYAmBssQf EgFO5X9ACJSZoI24WMJiwFwRYJNknOzDAkDf6tkjBhKjfuPfkZLfJ/lTAFQJpgMoAIhxFwFdFBAm CADnmHPdXe7nS5KoUuG/w/ZRQRCvqg9f73C7OMfixA+nuM+N+lGwrC9A5CR/CgCKAAoAYjxFQKyG oKguoPR2wx4XoNAJMK4H7o8JgoLPRfWsAexIv4hcA6RfIAD8YqDLSN/J75P8KQAGgNsPHHw4g1zN T4ICgBigCIisJii9sZBG8sFeAoVCIEEAeEg/KAgSxE7RRC2xoxITBK4YSF8yGKkj6Irs/Za/++8r IneSPwVARbjl44/MvubbnzzHT4ICgBgPERB1A3TyLxACUYEQFAlmaK88M7GqZDr2kX9R9B8jfX9k H70eLDJED1X9JH8KgAGAKQEKAGLQIqBcXUBPQiAoCiLEbpB85DEhV6BIHJQkf5GU4xK9HSLxqDiI kr1EahEKSLyoiU9Ckx8SPwUARQAFADGWIiDNDXBqAwzfPo38S53nu50gALqbmEPknyoATDKPC4IC ci+K8ss08ilq30vypwCgCKAAICgCqmgrHCN4974w4dtknyQAQucnCgCJMKF4Qmv7WJnbYimKNHu/ RNSfYumT/HtGxo8gDbfddptarU3/Nj8JgqgGItLVYyR2n+c57WP2ebHb0t4SV8z7tD73vtviu993 jnG+eTsPnee5lDm3856sf1/SbbT/PS3yNf79LWLWb6N5vq/QL2T5k/zpAAzprKUOHDyY84OgA0AM zgko2m+g666CKbdtVyDiBJjHzClXRaL/shN0qBFQsQvQibbDkb95jv82Slj7EYJP2bSnIC1wy/XX Z08rRceWAqB/uP3gB45n0tjGT4ICgBiUCCh+nP9+n3hIaDLkI/aUc0LHXHXQ0+RsW+29iYDiY90S v5/gU6r4i89h1E8BsG6448CBVQXU+ElQABCjJgLSxYEd8Zci/kLy7534ywoBCdxXivRDZB4p5gtG 9klb9ZL8KQCGFCwQpAAgBisCUrYgLicEUlcWBI4NgPj7LwQqJv7EtftFAoHE3z1YBFgB1goEp1gg SBC9kpZ0q6Wl8LGtQjbf8VDxYLCAUNxjYlXF6wWAelGcXQgIvUiwVQyon1t4cQsIzee1zjXud+/z Hfc9FyCegj+NtH3HjceR/OkA0A2gA0AQlTkBaY+tYjmh5j14Z1IViPRT3IBK4n+JuQKxKD/9vn40 7UlxB0j8dACG1g3gp0AQg3ICwhF96jmFjoDtCthRtccF0CNy2BF8IHLv9iJO1G9H9z5nwIzoEbnP dAFSIv7O44XkTweAbgAdAILotxNQ5vFRRyAQ4adF+So6y6YsBew16gfiOfjwOen3S8J7SpoMIw4B iZ8CgEKAAoCgCBiIECgWCnECVz2SvEoi9XRx0J0o6BPxR84n8VMAjP4HLaLumKAGQhQAxKiKgCQh kBTZq6QZthoXoKgJUJow6J3QyxJ/OOr/8euvz46yoU9fwRqAdYIoJbfddpvKVe1n+GkQRMnfj0gl z5H6PEXn2i2CfYTrVtzHzg3XBKRd4Mn7e3L1KKoDCJ2Lgvx96nmex1jni1JvvOGGGxTJnw7A2OL2 gx/46Uwav0MHgCDW1wnohyNgTKhlzjUfWJVcSlgB0KsjYEbvpSL+SNRPu58CYKKQiajbxzA1QAFA jIQISLTpuyb4XosY0ym/ErHQa76+m8eS9AeHOj+CwSJXSm5r/s7ZQ4AgUoJHqUwEtHrjpz6fvu1t 0WPsLXO7KQKsdkJILQSsSiiQ+OkAEKXxHz/wO/9tqnH+H9MBIIj1cQJ6fc6eGhe5tkFlBN+bkOiV 9P3PQeKnACASMaquAAUAMaoioBJCVyM6tTpNjqpxG64n6VMAEN3jjoMHP61EXk8BQBDrIwKqeO5e 1/73me17SAmQ+CkACLoCHhx+/mvw1i3n+EURYyECqn7+wYiCXlYGlHt+kj4FADGCgqCqwfBSRv/E uk9kal1ms37Z+yr+gmHSTWDy/kYLguuvJ+FTABBDgV/93f961YYzT3+t6y9a9TZEXvjil2Euy/lF EGPnAqyHEBgNkPQpAIhRcghWFVDTvMe+vA7Jn5gkETApYuD6668nT1AAEOOEO+78wIczyW+t4rl+ 8NxX48cuYM6fmFwRMC5igGRPAUAQAIDP3XXX5xXwav2YADkALOfqmZlMtvFTIoZvUlNDMbMN2woA kjtBEARBEARBEARBEARBEARBEARBEARBEARBEARBEARBEARBEARBEARBEARBEARBEARBEARBEARB EARBEARBEARBEARBEARBEARBEARBEARBEARBEARBEARBEARBEARBEARBEARBEARBEARBEARBEARB EARBEARBEARBEARBEARBEARBEARBEARBEARBEARBEARBEARBEARBEARBEMMFxY+AiOGNd0t9V+PR 7avTte1QmENDplVNbQAAJWoDlEz343Wl8EDCYyo6Vz9byj+4wvdBcKLz48Ty8pajZ5b3nGuszNdU 9jQEUApHIWqlnmXH8tXzT5yf2/ytb73lsiWOBoICgMC/uPvR2bO17LlK5FKVZZdC5FIBngNRlygl 2wXYAWCrPUx6GTRS1b2y3kKgPyKAAoATXi84eu48vvPsKZxcXnYGk29sTalM6rVspZ5hqabqz9Yz HK7Xa9+bFvnG1FT9Sxsb9fvv/ZErTnGk8PdAjBFuvXfhOZnKrhHJr4ZS1wC4BsDzAdTs4TDIQSHd HO1RDFAEcOIbNQgEXz/+LB47dabyT2amni3P1etHZmrZN2dU7QtzM/KJL9107Rc5avg7IEYAb7hb 6jvqh65FjtdkCtcJ1A2A7PN9/WodB0+3RCcFR1KcgeqEgCSLDwoAToD9wteOP5NE/lWNrXotyzdN TR2Zn64/NFvP/mLXVP4Hf/3Ga89wBHH8E0OA99x96Cqp5W9WUG8C8CoAs70QvurnCKo0YpdSroB0 /9b6JgIoADgZlsHR80v40pPH+uQsJAoCpbBhZur4hlrtvrnp2u89dPM1n+AI4pgn1glv+9R3ZzZs mHljpuStAN4EYG/oK1a9DALVnwEjJe6UisVANW6AJgLoAnBSXEfc/+QxPHN+aSDjK/Q8s/Xa6ub6 9Dc3TKs/XlWzd36TdQQc60S1ePefSA0XHXplluMnoPBOAFu6IX1VcLCqtEB1ln/nYDdioFshsJ4i gAKAE2QKlvMcn1l8EtLnESM9nD9Vy2TrzMx3N01n/23TjjMH73/Vq85xJHF8E13iPfc9+gpI7V8I 5EcVsDX8Zar0L1qlDQC1TkNFCqYeKSEIqhQCFAHEME2WJ5aXcf8TR9ed4Lt97HStlm+ZmXlk00z9 9q/ffNUfcBRxTBMp0f5nvr8Fs/V3qhz/GhleHKN2VRHpF60BUFWPHEmNwqUCMdBPIVCNCKAA4MRZ hKfOncffHTm+bq8nFZ6/eXrq3NbZ6U/srG183703P2+Ro4gCgLCJ//5HX6xWs1+Awj8EMKtUOdr3 kX4Zwi8i+SoHTJRwpUtBIOmugE8IUAQQwzyR9ksAyDo9TgBMZZlsn5359uaZ2v/+8M3XfIyjhwKA xH/f4muQ41cUcBMA1RPxB0hfxa6VKPZTPQ8j6YpoReLRvSS4Ar0KgX6LAAoATqz9EAD9LgLs9vzt s7NPb52ZvvORt135G7lSHP4UAJOD198l9Z3Zofcgwy9CcFWcvBNo1/NYlUD4qnBgWLdUxROJFMsD 6VEMhIUARQAxOhPtU+fO44vrlAKQdRy7W6anzm6bm/7PuzZf84t3vVatcsRQAIwtflUk+9Z9h35M BL8G4PI4saoAqReRvof+AzUAPrIPOxD9n2D8ZBy2/cVL3IMUAr2JAAoATsLrKQBkgI+3H7txamp5 1/zM71+4+eqfoRCgABgrXCiiXnffobcix69C4cUxEvdRfxrxlyX95qskpABcx6HH4SOSTK46mYqX ul1nIEbuZYUARQAxDDjapQCocjyth2C4YHrq3IUbZu74+luv/rfC1AAFwKjj3XcvvFJl6oMAXl7E oWWI3xvte0hfRSL8uMOQtj+A6vEH71r8BRG/Qc6pYqCcEEh1AygCiPUUAH+7jqsAqhqH3T7HBTPT z160ce6nH7zpyo/w26cAGDm86wuPXZyt5v8BwD8KcGuQ+lOJX6WeEyB9pb0hVWKQKFV2SMVb6EYL 9iRC9B4x0IsQ6MYNoAggxkEAyBA+l1LAjtnZhe0bZm556C1XfpWjgAJg6PHP73p09kwt++UM+BUA 84iQeTTq95K6Sjin+awxN0CZr+t1ApTvlfs7SYjGyBJyAcRD0BrR+og+lEZIEQJVuAHdiAAKAKIf AqBf46qf43Uqy+SijfOfmJuTdz7MjYgoAIYV77538dUA/rMCXlgUNcfsftemDxO/j/T1474oX0XI PpgWiK4eUElThJc4I26AaOzsI2ifGBCPc5AqBCRI8tKzG0ARQKyHAFivMSMDeI3N01NLF8/O//xD b7/y9zgiKACGBv/4i9/dvLI0/WtQeK8Csq7JPxD1pxJ/Mukr932EiwcjDkBBh0GJHPDb/uIIAzfK l6gYiLkCMSHQjRtAEUCsF54aQA3AMIoLBYU983MPXjKfv+Het7z0KEcGBcBA8a57F25Son4PChcX r89XEUu+HPEr7aCyonllkbZZIBhLI6igE+EOGtXjD9zfolcC59mCoE3c4hMD/si/UiFQKGYoAojR FgDrPe7KvN7Gen1l75bZX3nopmvu5OigAFh3/PO7Hp09m2W/CYWf9XBlctQftfsjxO8c91TtKx/p K+u5gu9DO0NVN3CKl/mFiVgsEpWAMxByBYqEgO/1Q8sLi9wAigBi1ATAIMZYL6/ZcgO2bdl04wOv f96zHCUUAOuCW+86dFVeyz+soK7xfZgx8k+K+nsgfq8L4CF9pcJkH+wzoHobPOGufsW5epuQU8RA VCBI4nN7RUiaCAhPcOVFAAUABUCVAmDQ46nK198yM3Xu0vm5d37p5qs+zpFCAdA3bBNRb7x38TYo 9RsApqsg/8qIvzTph1/TXhboawSkev3RB3L5JhGLN0IXb1pgLR0QI/0UIZAiPrxCgCKAGEIBMExj pq8rBZTC3g1zH/7mLdf+BNhAiAKgatxy37c2zeZz/y+AHw99iKaN7l9m5ztHhURBAfH7on3H9ldF YiKwZFAZsb87eErvERyPmKPV+xFB4BMDoq0csGsFQkIgNV0QdQMoAog+CoAvDLgIcBTchj3zswt7 5ze9/N63XMYCQQqAanDr5x9/gUjjzwC8yPsBOnZ+j1G/TfIR4jcdAJfQfaTvcw+8BYqe434BUHIi CAoA8RKsXtQnHpHgCAQJuQJhIRCsG0hKRRQLHIoAYpIEwCDH6Jbp+vlLNmx461dvvvKzHDkUAD3h 3fcu/Big/iuATd2Sv6/Qz0f+RWTtEL/SHueJ9g0h4JC+CtYN+FyJ0F4DvkFVuOVvgZUetfE9BG2L gVQhEHoOx10IuAHdpAQoAohxFgDDMi5najW5dH7u337tlmt+jaOHAqArvOuexZ9XCgehre3vlvzj Ub/H7m8SdBHxO0JAdR7jioeAY+C8JxX/95VcFRDb0tdpyGPn+i1B4LoB4jgDtivgEwJeYeB1Fmyx YcX7XaQEKAKIcRIAwzoOMwVcumnTx7/59qvfxhFEAZCM190l9Z21Qx8C8FPBD62I/BMtf5u0nejc a/V7hIAV7dvPFRIRQQGgyu0bUHai0FcAhAoAfYLAsPAlFvmLE80HhYAmIvyiIt0NoAggJkEAjNK4 u2hu7pEXbdj40k++5bIljiQKgHjUf9fRjcjO/5FS8ubQB6YsJeBW0cfJPxT1GxG7p7gvRPz28xmP VcVOgbeboArVMaQ3Ai4shou06w1G4hah62JArxkQWxgkCIGgoLDeA0UAMYkCYJTH2c7Z2SOXzExd +8UfufoIRxMFgBe33ndoj+TyKQBXV0P+vtx8POq3I3WXzE3i94mGzmoA6zkC6QGf62Dn/FXK5kAq PGNEt9+1u/x5yTYmAHQi18jeSgmEhEA+LfwAAAAgAElEQVRITBS6AZGliZ1/D0UAMboCYJzG1daZ mdO7N85f99BNL/w2BQBhRv73fX9fltc/I8Bl3ZJ/Sr7fzsvHCdwie4v4HfFQJByM11LeVQC+6v/Q 8sZu9gJIbvUrgUK/AnvfjOIlKARC4sH/PCXdgFD3Qs9nQBFADJMAGPcxtGlqann/po2v+spbX/gA BQCxRv73LDxHKfVZAM9JIf+yxX4xyz8W9fdC/Mpn9xuvp/y9BJTVklh54n6FnhsBmZFywlp+X1Se GuEXCAHHBTBSCH43oLwI8BcOUgQQgxQAkzheNtTrK8+7YPNrv/yWK+6jAJhwvPuehRdCqc8A2LMe 5B8ke6CQtDuEny4UvKQfIHxf0yDz35m4HZBSxno/KRQC4m36E7T8PQQNCUXzRUIgLghCbkA8JRCu C+hKBHDfAAqACgQAx4UuAmqN523Y9OYv/8iL/icFwKRG/vcuvkhB7gLUzuCHE9o8J0L+oUY8Puu9 TNRvnuM7N+ExugBRgUZDyrdjYHjrYF9pYAqZxZrvuMv0CqL1YHTvEwCB83xCIOAGxFcgUAQQgxEA /N7TMVevNZ63ceMbvvK2K/+GAmDSIv/7Dz0PDbknFvn3TP6efH/neono3RAKLrFnkcciIhoQKCR0 8//KIX1VchhJgNCCTX+ief9wpB4leOu8PPX8gCAIpgQK9y3Q7kkSAdxBkALgPO4f0VbAw4z5eq1x +daNN37xzVd+ngJgQvCOux6/pF5r3INIzt/ugldY8BfI79u3y0b9WTT6V8h8xF/gEMB6P/CsHIj1 CbC3LE4mopS2uk7nP/E2+ekqwrf+5sHHdR6fB17Hjv5jdQEhEVDOCaAIoACgAOgHNtbrK/s3zb/8 qzdf9RAFwLiT/70LF01B3R2r9q+K/Ivz/Z3HZiolwlfWcR/hx9IBKtwnwFp1AATqADwVgF31AQgU zUWtf3EdgSjJewncEgAW6edR0RBICVAEEBQAI40t0/Xzl83MXXX/LVd/jwJgTHHLfd/aNNuYuwcK L459GMEd+0qSv3eJX4vwI0Rti4FMuSSeBSL+LEEAwCMyQuRvtyd2PjOVOKQC2/9Ge/sHRECZKD8m BGwBkAfcAMcpKBAEhltBEUBQAIwEts5Mn3rull2XfuFNe58e939rfdK+3Hf+sdSy/NAf9oP8fbfD +X7Xmm+TtmHrWza/RuJ25G+c70T78QLCznJAPT1gOR/BOoA0HSnWB2v0+FeAQHUEggJE1No5qiMC pHm9fUypNcJt3+78bRM21p5HFKAEawTfInCo5jXl3haBKIVcBGh+3q1zcjRfRDVfRKkOo7euq+Yb bv1rm6ej+VrGac3PsfXvVZYIUA55N89W5Vi95OkEMXE4sbS86dDJo1+77sty6QMvUysUAGOE7KLH PgjB29af/AP5fp3IPcSe2dF+IPLPPMQfTw1ozoTPrfDUBHQcgLW/s1MZLpxV2D4NbJ4C5jNgOgOm AdSaF538lwCsAjjTAE43gGeXgWPLwLFzgkaetwVCu7q/KQpExBAE0rquxCH9NaHQJFh0zumQPqCU IBdlbv8LeG/nQJP4W27BGjtn7ddXTbEhjggQkc5YajJ1sgjwkDVFAEGsk9Ny/vye+UMP3g/g5eP8 75yoFMC7P7/4KxD8x9iH0L3tX47846Tvj/oz5TvuRv5R4o84Agh0D5ytZdgxp3DhLLB7FtjVx+/o NIDDK8CjZ4FDpxvIczfPjoTCP6Oy37H6m6LAsff142KmDKzUQC4JqwoAZ4VArHdA2yWJtA2uqlFQ F6cTw0BMTAGsK567eeNHvvn2a95DATDiuPWeQ28QJZ+wAtPuyR/w7rxXRP6Zr+jPc18WivqtaL9D 9n7iz4KpABUsApyfUti/McO+eWDPEIyQ4wC+dRr41rMNrOaJef+AEFgj9Ai5a2IgDzxPnlBEGK4P 6KMI6ILRKQIoAIiIY6wULt+24X0P3XTNnRQAo0r+dz16qdSyLwPYHvzHx9b62zZ/BeSv5/tNQvcJ gNY55mNN8RCuFSiqB8gUsH2uhss3Ay+YGu7vUgB8dwX40nHBmZU8UqxnCgKHwJtRvkPyXgHQuZ47 YkJfSpiwJLFvIqA7F4AigAKAiGOmVs8v2zTz6q+87dq/pQAYMbzrC4/NYTW/TwEvif3DlaebXVXk b1fkZ548fmaRd9Y+7iN9X8rAE/EXpAO2zmZ40RY19KQfwzeXgS8ey7HUEMPud6JzL3mb4iC3zss9 6YO8KH3QqwgIbSDUx5UBFAEUAEQcW2dmTl+6f/PFX3zFZSfH6d819kWAaiX/XahU8oe71h+WMOiB /H35/Cxg+We6MLCdAY9AMJ4/RPxKYaoGPH9TDS/fOB5f/hXTwBV7MpwBcN8zwMKpxhoha8V1ebNo ULXI3VoNAAV/R0LohYCCHAqZrD1f1iJ/pdbu04oDcxVYIWAUCWqRffO6gvmwzrgTz/HqigL9z0UQ RAsnlpY2bnji9BcAXEkHYFSi/3sP/WsF+U+xf3Ra3t/d2Kdq8rdt/VZUn0VI3xf5t2sGrNedrWe4 dpvCi6bH/8f61XPAA8caaNj5f9v2N6J9LeqHmQ5ouQVeFyBQVxByAlqvB/gaGXWieG+PgD4XBdIJ oANAxHHZ5o2/8423X/NeCoAhx633LLxQlPoygPngP9iT909Z7udtrlOC/B2737ivhADQVwEE3IBN 0xletVMNRTHfeuORJeC+pxoWUYeJvkPupiCwUwK6kLCfx14hkFsiwLfvAJJEwPrUA1AEUAAQYUxl mbxwy4b/9cs3X30XBcCQ4qceeGDq2bM774O1hjNk/RcW/YVut8gW4YI/N6dvFu1lFrHrlr9J7E0x oAmDmBuwYUrhFTsz7Mv4o/3aeeBvj64JAW9hnyYQHEEQEACmC2CdA7iiI7r3gNv1cJBFgRQBFABE GNtmpk++5KVbLvzkZZctjfq/ZSxrAE6e3fkbqeTvnOMr+tPOcJyANumXI3/9PoPg29G+SfLmdate QOsJMFUDrttRmwirPxVXzwJX763h7pNrSwlzsYi1lZpv1QzAvE8vwMshyJojQpqte3IAWbseYI38 M7XWLdCtCVjL07cHodYxsNUYCMFGQeEcf5X1AP7nIwgCAJ5eWt78va+f/UsAr6cDMGR4172P3aCQ /w3W6rS8/9BK8/4+u99T2Oclf0/03yH1iDhw0gRrty+7oIbXbOQPNIZlAH92BHhmqeFY/p3oX18K aEX+gdqAZCfA2WvAs6ERYOwjYG6QFN4zoMr+AHQC6AAQYWRK4Yotm//pg2+78vcpAIYEb/3kd2c2 b5p+UARXBP+RkfX+xvI+bROcbtb3p5K/TfDObfgFgP48G6czvOlChU38XSbj+6vAZw83CwVty18j 7yIBYNz2iADvEsEUETAk9QAUARQAhB+bpqaWrt49v+Ou1155elT/DWOVAti0YfrfRck/oHjs5X2w yR9FPf319r5uE58Y+Ru1ALrFbx0ziwQ7guCqbTW8bJ4/xrJ4bh147t4a/vSo4Oi5vEOULctfzPGR N+1+oLMscM3W125b6QDVPN5aIqja6/3WliQ6GwHYg1I6tj8GlArwPydBEKdWVmaeeGb1zzDCqYCx KRG79fM/uBYK74tOZDHr37pH+S0DwyEwd/kzXQLdps9aO/x5yV855J95BEGWaRelMDdVwy2XkPx7 xY/uVLh+d834bNMvre/Xv2LDqNHwdWiEuTWzrUY7e00oOKdYKaoiClc9+n2KQ4UgHBw6ffZ1L//4 12+mABggXneX1EVq/wXAVHDS8pC/LQyUxw0oKvrLYHb1M3r3ewr5skAkb19qkdt7N9Xw7t0KW/j7 qwQvnAZ+cm8Ns7XM+9n7LipBBLTGgNuQKSAclbsZk1mUGqZltQ5krSgECMJAQwSLZ8//4Y2fk5F0 08dCAOysH/ppANfFIpaurH+VZv13hIG1058d9WtEESZ/BEmnphSu21HD6y/gD69qzAD4yYszXLSh Ho/4E0SAUmZ6x2n+5NkUyi8yletMKbjOlUqJ2Ht3AegGEISLE0vLm4+c/PrvjeJ7H/nf8k98fnHr quA7iGz0U6bqX7ddjclbEwKhoj9fRb/rAsRIPkQwCtM14KY9NWzl763v+LuzwFePNayiP/1iFwha x4OrB/TCQXj3FfD1B9CbBBX1BygqCNQf2ytYF7D+YBHgkAYQtVp+xYbtl37p7c8/RAdgHbEK9Wsx 8o/pnZD1D8Bq/uNzBLQ0gLWpT6YsQZEY4YfSABumMtxK8l83/NA88MaLawV1GqZQ60T+TTcAytzl MbBzY2o9QDwVEBC+oXsrkv10AghiDUuNRvZ0fvqPRu19j7QAeNe9iy+CyL+KTlKhjX5KVv3DavZj OwPmpO4jehRE/v77ts3V8M7dCmzot764tAb8w3011KziyyIRp6d+2g2dNCHYEZZ2oyhLbJZKBaiB pAIIgujgiTPnXvHiv/raSK0IGGleUcBBxAr/3GmvVNV/mby/XvRnFIIVRv2B+zKFHfM1vH0Hf1iD wlYAP7G3hlrre8xSBZ3mBLULAjt1IMpxAHxugF0b4FkVEKB6lfbboQtAEBWiIYLjZ5d/nwJgPaL/ +xZfA+CNsclIqfispTy3lcdqdZf8adZu634r8lM+ErALxyLkv3u+hpu380c1aMwB+Gd7a5jKsrXv L1MlnB2fIIS2OsAdTympgMChUi5AlexNEUAQazhybmnPtX/+jX9GAdDv6D+XX0+dlVKi/3jDH3gi Njh5/07uF52qf/3SFgQI55Wb5P/mbfwxDQvqAH7ykgz1zM75m/l/peCIQPd+c3WA6yjFUgHmPhWO RtBSBevpAlAEEEQHR5fOvZ8CoI+49Z5DbwDUDdHoH8XRvxMxWfUCzgRt5//1SRwqQAAwi8O8xWOd Y9vnSP7DKgL+ySW1pB4B7X4PPhEIe4ykpQLswasSx/h6uQAUAQSxhmPnl7df+bGHf4YCoE8Q4N9V Ef0jEv3DjsZ0J8DX5EUv/PJYw0ZRWKB4bOtchrfR9h9aTAN4z95a8YoAFDgD8BSPBlYFtAZfFQWB 60HaFAEEATy9tPzrFAD9iP7vW3gzlLyib9G/0jcGCizXAsxlX8q0/l0xoAqXlG2YyvD2HZw+hx0b ANx8Sc3r4sQEXuZJAxj9JbQ6AENwhi7RgkD/b2E9XACKAIIAji8tX3DNX3z931AAVB39i/qlyqN/ ayIGAoV/cJdy2ev9O0u/lOEQZNql0z9g7TJdU3jnbk6bo4I9GfCaXTVXzAHBwk9zXMAZM75UAFBQ EAj30DC4ABQBBAEcO7/0f1AAVIh3fX7xOgheW3n03zqlsPBPadFa2PrXbV99UxgVcANu2sNV/qOG K2eA52+umcLOswIks6P2QCpAwZcKCBQEjoALQBFAUAAs7bz2z7/2oxQAVU0oIrf1M/p3H9tqEGRH +aYD0Lb+4Vr/ti3c2Rtg7e/LL2SHv1HF6y4ANs/UOuv8A7UA/kZBPgcgXhAY6WQ1lC4AQUw6nlld /Q8UABXgHXc9fgmgfnx9o39f4Z/d8Adem1d5yMDOG+/dWMOV0/yRjDJu3WXuHqgCos+bHtKLAS1X qUPgVidKZ+lqmgsAugAEse546uz5F1z3qUdeSgHQI+pZ472wuv6FJ50+RP+A1/a3l/rp1r+xBNC6 PjeV4XXc1W8s8LZLaqb1DysNpHxpAHuVCALpANcZcEJ+FLgAWP++ABQBBLHWHfDE2eUPUAD0gJ96 4IEpKPyT6CRTsutfN9G/U/inRW8ZzDy/HvXrtn/r+ltY9Dc22K2Ayy+oeVd/hNwftwYgnA6AlQIo qgVIYeD1dAEoAohJxrFzS6+68XOfm6UA6BInz+18O4Dd3UwoKV3/ykf/sMgeWotXK+qHcooAr95W wxb+LsYKr90MzNVNIaiUMlv+eosCdUFgjk8EXICi3r+mGB7MHgEEQazhfKNRO/rM9v+TAqBLCPAv U2ct5YmFvNG/d91/+ejfLvxTynYDzGV/G6czXDfPH8U44pY9NWtL6M520ZlVFOg0CkK8KLDtAthi AO649QzxcsxOF4AgKsWJleV/SQHQBd51z8JzIPjh2ERSVPwHwNnxL7zuv2z0r6zIP2D/N6+/+UJO g+OKLQCu2Fpzvn+3O6C2iRS0+xB3AQB3RYDeM0Af9D0tCSQIolIcP7+868Wf/OrLKQDKvkGlfjL1 fRYV/wFmtG8LA2XvCpgU/Zukr0f7a61e0b7vBRfUsJG/hbHGjZuAqSzsANmbSBnCEv5aAAT7Avj5 O1YMOOhInRKDmEQIgNPn1NC1B85G4IN7R1czSrD4T1sJoNzNVVQX0b9t7Rp54GYOeLqm8Gqy/0Tg dbtrHXKHvyi0IxgtF0D5a1VgdQdsKdbYToEpv5X1LgakCCAmFc8sr1xPAVAC77r/0RcDeGFs8ii2 OkPrpvVIShlrr5Vno4BQP3ZjCZcVzekpgB/ayW5/k4JL68Dm6ZpZCwJfpB9wAODpNunZ+EcVUXkP xYAEQVSLk8srs9d87Os3UwCkvrk8e2d6VBGJfSLFf/Ds+Aff5Bwq3IK2x7vVBEgv/HvBFH8Ak4Sb d9sFfn4XwFwV0DluNq8yXQBjx0prNUtVxYD9FgkUIcQk4ky++j4KgESI4Me7mkUKoiS7+A9wq63t vD/s6Mxn2dqCoXnOq3Zyups0bAKwY65mpYNi+X6LyGF1+FNubYtyBG16MWCBd0CWJog+4MT55VdR ACTgPfcsvATA82MTVYr9bxC3CkRGdlGgNw+rvDa/Hd3pa78zBWyaznAxJ9KJxFt2Km9KyLD3rfEJ 3x4BVgMgdFEM6P9lDBb8WRCThtOrq9NX/8U3foQCoAA5cFP6RJJo/7cJXwXs/1jxH9zCLSu/m+l2 b/P+V3PZ38RiHsCu+brrFul5/WBRoFsTYEf6SusLHKtzCboGJGiCWHecXVn+VxQABRCl3tzV7JRg /7vCIbRzmn/Zn6/fv2+Sn69nuIjjfaLxwzu0PSJgichYUSDCxYAtweoQuqd4NZXIB5UGoMggJs8F aLySAiCCn/j84lYF/FBsoiieONLtf8NOtaxZxKI0ezKH6RS8dDunt0nHZqytCOiMF0s0auMI1thy Bi2scYmQ2MXIpAEIYtLw7NLy1pf8+Vf2UAAEsJKrNwCo9xxR+GY4j/3vdP6z+rc7xVnKah2sOwDa uv/LWPlPAHjtLuVZDaDl/D3RvyFeEe8MCE0QJKcBhihCpxAhJgk5gKW89l4KgNCbUvKm9Mkj0vs/ 4AaYj/Pb/94VAL7iP7ugqykGLruA6/6JNVyk0FkNgEAqQB+fjvh0OwM6hB5k9/SmQGRoglgfnG6s vp0CIAABbuhqQvK0+A01/2lF78b5xiTbibAc+98u6HIEAfBybvhDaLh2W83rAHQie393wGgaQIV4 v7su/4PcG4Aag5gknFppPI8CwIN33fXobgDPiU0Oqcv/QsIgWv1fYP+7bYPdSX37XA2M/wkdL9sI tzGQpxAQKWmA9jg0VwPYOwTG9gYg8RLE4HBmZXX6yk9840UUADZq2Wv6FVIoZcdJoUpnFcz7dyZq rVjLcgCu2sIBTpioA5ifqmm7TeokrtwWv8rf499XJ+CQvArXAXRD/BQJBFE9Gkur/4gCwJ1sXp1+ brn8v/E4a8K1m//AqsbuTNQx+39tyddz6xzchIsf2m5uHmWnAdptgHUBqtlRdm9/u3YlnAYYjToA Cg1iknA+lx+mAHDx6q5midAWvwj3RffWS2n2Pzyd2tzlg8poLHThfI0jm/Di8mlXNLajf09aKrgJ lWH1qxSqTyZYkjBBrA/Ori6/kAJAw0898MAUgGuqiiO8EVLR8r+AWPBvGexW/1++mQObCI/MuXpm pY3Mnf5CtQAhpRtaDmif3n0/AEoCgugHTi03Nt34uc/NUgA08cyZXVcAmIlNP93mNN38f3jCs5f/ wZf7149rkdzzaP8TEVyzNbN280OJWgB3Q6HQDyGlH8CwiiSCmAQ0RHDs1I7XUQC030zjmkqeKLwI wKB2s3Of2ydAz/+3l2rZokB1WrNunGbtPxHHFXPm2HE3+OnUARj+lG+fX19b4BJMykJAghgsVvL8 9RQATQjU1ekTUloBYKAZoH+G0+Za+JqzWBGbTv4KwKUbOE0SccwB3pUA/uWpbjTvG7JASj+ACgoB CYKoFMuN/DoKgI4A6M4BUGlTXopYCC2v8tUNADBKtfZt4IAmirFjLguKAJ/o9OvUYHK/50JA2gAE sT44v9p4PgVAO+qRq6qYgBS6KQAEQi1W3epseFMAuzieiQS8cLO5nY9RB6Ai9Sf2D8Gy/osKAVN/ Q4PsCEidQUwSzjYa2ykAALzrkUemAVzcl6lDpU8w7qTcOa5vxdpeo938M1dn/p9Iw/4ZfTMpn+h0 RQB8hYAlo/0YsZN0CWIQDkBev+avHxqYdzw0rJUf27y/6P10vQLA0wDV5xAY8ZNdiKXgfY7W7V3z nEKJNGy0x5syi/k6N5Q5emOFgLZgsNyDUVoJQBCTAoFAGtMvm3gBUIc8p5InUul36h38fKeZ6QL9 utaVrXn7whkOZqLMMFWOw2SPNaVsCRsZ1aoPPxeKBoLoOxrLyy+nA5DJpdVOOMr7HEkrAOCvqjZq AKz4bBcFAFECu+ZrTroJdv8JuOn7lMLW0isBCIIYGFby/KqJFwBKcGkv5K4KIpaibmdFKwBcIQBj 85UdHMdECezf0Bo7yhnVSrnjz69XVe8WwJDqAkoVYlKwKhjY1sDDU7km6QWAvU4OKlUcqFATIfM2 JyuiLHZOe8ZgpLufKvmbUH38/RAEUakDsJsCQHUZRHt6AAQ3+rFmW/M8TzGVcbqnUKt5e5YrAIiS 2FKD5iC59K1idSgxGld9/50SBFGlA5DLJgqAilx0VSAMkuc239arusDQJu1NU5wViXLYGBKagGfN SsQJUPFW1yRughhuNCDzFADA9sG/BeWfiJV/Dm3d3jjFQUz0FkgrzyDz1v57dg8s/boV7xNAEET3 WFnNB7Yj4Bg5ACUt0WBzIHPNnyp4sAIwX+MgJroZscqxp1SArZ3jZGiCGAusQga2h+xQCIB3/bHU AGxej5BEJT1RYIZVbqMVQGGOWwATFUvXUDogdrbq6mejeniXBEH07ADkubryj74xPbkOwM5jc/2b YcpNgSpyLHR7jg4A0QWma6qEOE0P+0M2v+r5l0IQRNUQAVbm6psnVwDMLPVN/cSjooRZUhVHW3XO nEQ3AiBbn058quLnIwiiWsyvnt04uQJgaXV6UC9dxSTIVYBEd+MmoW5FDc84JwiiP8glm1wB0JiW oW+kG5tAa5xdiS4wlflHFocTQUxaNIDJFQBqdWrdHQA1pM9FTA4ypUZroBME0ResSDaQZkDDYV7n q+teRicVPldDOICJLn70ufR9bIJjkyCGHjVgclcB1KdrK8P+BQkFAFG5AEhgaI4tghh7qCk5PbEC QK3WlteTuEW7JkUPkOLnpQAgukEjF//wkvX+HRAEMUjkq9nZiRUAS/VzS6MT/bvT5vkGBzBRHudW i0ZWd4Qt1slS8fMTBFEtVlR+amIFgCwnOABdz07FIb2g3GQpYj76HAUAUUlUHjoi2qXqn4hUfB5B EGUxhwkWAI1NMxWkAKTcWRJ6tDQZfu1icb339lkKAKLbMStFAlQ84zN97JO2CWL4UT+3Ork1APe+ dPc5AP0pBJReH9KZcEOT8tlVDmCit3EmqUl66ZwvUn54M94niOFCBuCBd1w3uQ7AcaUEgqf7Nbum 50AlEO1LNJFwaoWDmCiH5UCkr487saN/CY3GBBIXsjtBDCOmarUGlMonVgAAABSOdxXFWEQfzJQW ToCSdnprgpbOhH1mhTkAohye9Yw2c5z5c1Q+9990ElLlLkEQw4BppQYWQg5TF/tjfTIAgtG+TzAE c/4i3nMFwGrOQUyUwzPLmoYUe7yJ17WSRMHaV/qnriCIakm4lp2feAEgSh1Ln2skKaiXZANAClcC iBWGiRWlLXEcEyVw+Lw58ox0kx3tF+X6pRwzjwKHU2cQk4KpLDs9qNceGgGQ5XKs2mcs2WZVTNfV O/lKxzkwnAQBDjMLQJTAwhlbTAZy++J3nVprVIqXsCYk/8m2BDEw1IGTdAAgh/rB+xKbTaGt+Avd NgN/I0oT7YQjtACIEjizkhv03XYCxBx3KbV7Ut3PhSCI9RYASj028QJAAT/odrJK7XBmT7fiXNfu lU6VgH6/iJkOaN139BwHMpGGvD3G/AJTnFEqxZX/viJBqZbkKRYIog8CoFb7Fh0ApR7tfQYKWZwB U9TjFhg5WZ3sRZy0gGjh2tNLrAQk0vCkwFnuZ4+31tgSbSxC1o6bPQAkSvyhNQHrVjRIEERcAGTq wYkXAFmmflDVc/kI3rFUPZOkPZnqj2kV/fncAsHaxi7LHMtEAr57SneUfOTvjmPfOHVTBOJcc5wA 6Yb211ceUIwQk4Qp1fjixAuAT73qksMAkpdDxHoBuMTuf7ydgw0WVDkiwKwBaN1+lA2BiAR851Te jvJTyT82kH2ilgRMECMQ/SvgoZuv/fuJFwDHlRIofDd9MkpZCijpG/20bFmBMwlLIAqzRcDCGQ5o ohgrjdxo49uuNbELAMUVtP6qAFmfWJ7KgCAqxdxU/dygugAOlQAAAAX1cCVPFFkJIFZv/1Yu37H2 xS4EFLMPe1sEdKK4w2dZB0DE8YQlJNu5fqf6vzPupEgGS2jocwkgQQy1AKjVDg/y9YdKAOS5fK3b IKRUn3/9dnIhYMvql1Y9llPE1chlcAs6iZHAw8+0yF4M8hdjfLl7AEhCAaBYN4o2ES7D/eulE6hH iEnCTJb9/SBff6gEAFSxACi9EsBusxpo7CPwL+9rk32kDkC0OoBvMQ1ARLBwquEdO3YKwJcGMAZ0 ZA8AQbwuwLPBMEEQgxAAtfr9FGRIm2sAACAASURBVABN1GSq+xRAYFOgWK9/b81Aah2AdCI2aBP5 d08yDUD48QyA3Fr/H2wAVNABENbjk8hcSv2MKA8Iou8CQP0VBUATH75+zyEgfVtgSSwEdI+L0/a3 ba/aUZUI9P+MpYCi1xCsPf58Q3CW45rw4MvPaE6SdLL7urskVt1JqAbAHoO+MV4pla+DDqDUICYJ 01kt/+rNVz1EAWDibyuZGKRYMOgNWOzzjNSAmNG/6KLAsxzwYaYBCA++e7IBu8mPUfDnaf7TcaS6 y/9HxQAZlyAGhk3TtacG/R6GUACo+7qNFIITXqk6AHE6qNm1AIBeF2AXBgq+8yx3BiJMPKkJxM5Y 0kSkFOX+tYEcWEngb2udtp8AI3OCWF/M1+sPUAA4k02xAEgpa06pA3AqpK0HtAnftmXFdAfsNMBK A3iMpQCEhruPFtv/7Va/RgogsP5fOoQf/FkE75TiU9aZ+ikyiEnDbH3qLygAbNTxd0B6V91u6wBE swOMSn7YxVbiXQnQWpaFQFT34AkOcGINOYAT51ddt0h3kEQct8m3/M+I9Eus/2cDIIIYHtSUwsb6 9EcpACx89JWXnAPwYLdzUFGrcxFxAn5/GkD8ToIjBDyTuABHzzXAzsAEAHzhlDVurBoSZyyKb/2+ 2TPAucdqUlW4/n+ISJ36gpg0bJqqn/ziWy4beNuYYSwChFL4m8JJI7EfgBFR6cTv3QzIVAZ6AZa9 GsAmfKdAUID72RWIAPC1Ew3/mLEbANljDGH7v5NC6GxqXbQBUDfr/0nOBNEHATBd/8owvI+hFACS q092HUEEid2/k5+TBhDXCXCif43wcwkJAsEPTrEYcNLx9SWr+A/WUj8Rx1GCUfnfi/3fC9GT+gmi X5jJan9AARDA0fyS+7HWNyVxSorkOXtKA3iWAMKTChAgF7M2QESQ58DfckngROMLRxvBNJFZO+Ja /053SvFvRR22/yvo/99nHUCZQUwc+dcymTty9R9SAATwmRvVKoDPdjt5iEcYlEkD2Guujcnbtmr1 2yJtIZA3J/1vPkMXYJKj/9XcHBd6oWjutf07Y8p0s1z7v3N/uv0/jP3/CWKScMHM9MID/5saihKx bFg/JBEpTgMUKIAyaQDxWKv2YwqLAcXc0KXlAtx3ioN+EnHfEV/0L+GxYx+3UgS2/R8qFCwnkgdn /1NgEJOI+XrtU8PyXoZWACCXvwLQSJ/QyqcBnFaqdhpAxJqc/Q5Aqw4gb07uuehpgbXGQGwLMFn4 8lk0x4MZ/ecB9wgFxX92cyDROlI5haixXwotAIIYHOEqYHZq+k4KgAJ89MZLnxSoe3s0AeBLA3ib AulRVVExIGAQvRnFiZMyyAX41NMc/BMlAI4VRP8SGEuB4r+O7S/hRlbagB52+5/agphEbJ2ePvbQ TS/8NgVAAhTwP8rMJL6+6MH11IZrIGakZRcD2hZtcEmgOFFf3jz/yNkGjnP8TwQ+8TScmhA7+s8l ZemfW/wX6v1fpvnPoO1/kj8xqdg8Xf/zoXIkhvnDqjXqfwJgNX0CkbALEOgFbORUrYnWWaIFq4Wr bvfDzuN2JvmWKPjsEU59446nASyeXu2khowxYK0YAfziUsSJ/CWy9j/kbkU1AlmaINaXbJXCTG32 NygAEvGHN150DAqfK5yrSu8NECgGhGu1OsVY0onqbRfAJvy1653HnFnO8WXuFTzW+NjjubUsFGa1 v2c1SR6I/nUxqY9zt1jVFb6S0Pt/ENxPXUFMKrZOzxx5+G1X/IACoAQU1H8vN8FE9gbwHLSLAb2d /RJdAAEMwm9FdLow+PrTbBE8rrjvFLDUyIORf9sp8o2dSPTv6/wHlCz+SyJjIUsTRJ+wZbr+x0Pn Sgz7h3Z2rv4/kNAUKKUYMOYC+GoAEFqSpbsAVu4/7AR0csJ/zlTA2OEkmi1/BY4j5Nx2Iv949O9b +icB0g4W/yUOOUb/BFE9prNMpqbwf1EAlMTHrrvoLIDiXZMSigFDs1DhkkDDBdAKuZxozhYEa0JB XxaYi+DUSs4OgWOGP3nCXPWRW1F+DnMVQJ6Y+4eRAggv/TMpv5iA17v4j+RPTDJ2zM08+LW3XjN0 e8Rmo/DhKdX43XKTSqQYEPElgZ2+7aFaAHPSzo3Izp74xej6lmsOwd+faOAYfxdjgU+eAJZWG9ZY WBOBubWkL3ci/7ToXxDZ5U/MltYhEZxE0n1gapI/MenYUq//+jC+r5EQAB95zXMeAlC4e5KkdgYU jyAIugCIuADapkBWMWDuJQHzvk89wTbBo45vrQALp1Ydq99n/xspgMi6/1jlP8S9Lxz9lyv+Iwii emydmTr10I9c/acUAL24AJD/p0x0YRcDdu0C2E2BjMnbnNBzy9rNYdv/ZuOX5Qbwp0/xBzKqOA3g rsON9nfrtf49hX9uV0lLWIYq/+HP/bsrWuIR/XoW/1F4EBMvAKZmPjKs721kBMDJ0yv/H4An19MF cHv/ixHxtwg+tyb03FMUmFupgNbl2eUGPneSP5JRxEcfs6N687sNLfnrXOwdJO00QCz694jaIVv6 R/InJh1z9Vpj99baL1IA9Ii/fPPzlwToqwsQWhFgdwfMHbu2KQbQigD9tm8eOPboyQa+eo4/llHC h58UrOQNR9CJ1e3Pvd+tIXGJ3zMepSD6T8z9r1f0T/InCODC+blP3fXaK09TAFSBevbbAArr57t1 AQCY+7XDt2ubeJcF2r3/dWcg12oBco8YyEXw4PEGfsCSgJHAx44Dp5Yb3hx/bjk+wU5/MN0kO/8P CXT9C6z77yX3XzVZk/wJYm3p3+Za7aeH+T2OlAD46CsveVpB/qA/LoC4Pdj1fdpa7X0RKAj01gVo zoCYqwN8l7sPN3CEv5uhxmefAZ48s+qP/C2yz7Wqf/1iiEmxV51Yy091QesJ9XuN/vtV+U8Qk46d czMPPHDzlYsUAFWilh0AipvplXcB4N0jwF4WaBcE5s5E30oFhFcAGEVjlh38qce5PHBYce9p4Dsn V73fYe4RdhKo+s9D1r8V5QNu06qqo/+qQS1BEEBdKeyYn/rpYX+fIycAPvKqvd9TSlXmAoS6A0Zb BLcIG7FUgNsrII/UAbRIpJELPvFEjmf5Gxoq3H8a+MbTq36yR/g71s+3q/4d698q/DNTAdqGvkMa /ZP8CWINuzbMPvilN1/1JQqAPiBXK78KYKkbFyDWHTB5WaAnFdAhAQQJIFYUqJ+/2sjxscdzOgFD gntOAg83yV981f3ejX7cnL9dJBpb8x8q/NNdg9Tofz2ImeRPEFr0P7Phn47Cex1JAfDRVz93ESL/ pRsXABEXwJhoYedgw6mA3JjMfTnegCOAsAho5Dn+8vEGnuDMOlD8z2eBR55ZLXRz2t8nrBQQ9A2B OkWi/uV+Aeu/YNlf+Z7/1Ub/HKIE0cHuudkvfemmFzxIAdBHrCr8OoBzRROSiCsCfBumQMIFgd7V ANDa/WpuQDvat8kg4ggEreNc8OnHG3hkmT+qQeDjx4HvPbua/n0Z+X178yjxriDJnai/Y/37BmvK sr+knv8kf4KoHFO1mmy5YPonR+X9jqwA+OP/Zf9hKHywl0lKEgsCjYgsUBjYIvrOpG+Rg6cJTAqx NETwxaca+MJp/rjWEx95UvB4s9pfEsjfWf1h5/4BI22UI1JgGmpEZTlUfj9r/Uib5E8QJi6en/3s V1935SMUAOuAfHXuNwA8UTg5/f/tnXuMXNV9x7+/e2dndnZ2bYNt/MA2LxOM7Y0pIaIhJA2Ulofr BzTBdkibKmoSSFMpaVFI1DRNI1VtotJWraKStol4tQi5kVpFDagpifEDFwi1TVPHFBewFxsMBhvj 9+7c0z9mZufcc885997ZnX3Mfj+SPTP33pm5r53v9/x+v3OOKwqAfAWBCfE3i7Zi9QBIhH3tgg+v +Dee7zlaxQ/f5h9YuzkF4HuvKhw7W83Q6leO1ACMSYGgGQnLgD8JwXeP929ODQyMT+EfxZ+QOD2F cGjmYGHdZNrnSW0AHv3I7OMR5A8y/WDlKAi0pgLMXgHaj3PkqAdoGIEoMWdAVhNQXx7V/r1+oopH Xo9wkn9rbWHvIPDgQBVno+zi74sGRLFi0Wb4P7JU+w8P+GPUnZj3pE+Kx6rwj+JPiKX1Xy7/9fbb l02qZlow2U/60msXPKiAZ7L8UCkjCmCaA2VpIbmGCW6GdJP1ADEhgLL0AvAUlNXFvho1n+vrTw0q bDwQYc8g/+BGk8ePAk+8Vm2e8+Fzj8ziH7uu0Is+bcWiNhOQbK0nQv+Owr90UR6d1j/Fn5Ak55SK 7/zP2v67J9t+T3oD8EciUaDUF+tpVf8PVgupAPcwwSo1JdCcAdDePVBZiv6ypAOGogjbD1Xxb0wJ jJiTAO4/UMUrx4as59pmwiKH+EdGqz8WDVLKP7CU8g/3OxFC/xR/QiwiKsDcnp7PQmTS/YkEnXAB /unDFzwF4O8y/YhlSgWo1FRAYlwAY3yARpFXpOd9YdYBwCosVY/468J06EQV//hahP0R/whbYftx 4KH9VZyuNs5r5A75R+65HHTxNyf5MQf7iWwmAI68v2fAn7EO/VP8CbGzoNLzzK5VSx+dlOalUy5C V/HsPQp4NcuPV3oqIPmjq2yGwDZksNJbgNAmi4E2JTBS8sieSEAU1VIE9ddnhiI8cbCKxxkNyMw7 AO4/ENUH91HeyEtavYYp/s2JgBBblowY6fePL+9vr/ofy9A/xZ8QO5WuwtDMMFw9aaMXnXIhHrp6 8TEFdafK8iOWJxWgVQfGQ7PJEG7kSgNYTUA2galqr6uRIzUQKRw8UcUDByL8F6cV9vL4UeDR/VWc rkaJc6if36otAuNKBdjEP9HP36wZsff3z5P3Txdqij8h7UIEWNTb94dPr+mftHO4SaddlPVb9m8E 8FHJcLAizTWibyO1R2ms016L/lqkubzxXICg/jz2KEAAgYggkNrnBI1t68sCSHNbkcS64ffq66C/ rr2vXAjwwfMECwP+kTbYcQp49nC1GZkZFu54PUZDtCNlmDYtopOo4YD2flP8jaiQtfgPttEAXXl/ lWvAH0Xx7yjeOHUaTx16iydiAjCvp3vvvo9eeelkPoZCp12U8Gz189Vi+GEFnCeWHzSxvjae1V/W HhSgBEosn6KU5iKab1KoLY+UQtB4hCAShUABEQSBKERKACgEqC1r/OgHsee1j1ZSe64vE6l9T2Pr oL6fJwar+I+Dgt5igKtnCRZNYSPw0hDw40NVVKu6KKvY6Hy6gMfNAYy8v8UAOMTfNbmPdbAfy1C/ efL+7RBwij8hbsphWJ1T7PnVfZM9itGJF2fd1ldvEhX9UBzHJ9YoQDMOIMY6aazRIwGO1n8jQhBo kYJgeL3e+o9HAoZb8UBznUg9KmC08m3RACMSoH/u9GKI98/ClIoIvDAIbHujisFqPB2jd81MFusZ y2HUapjb6Dl+rcVvpoIilVbxb848ma/L32iH/in+jAAQn2gKlkzvvXvXmv57J/+xdCjrN+/7NkQ+ JxkO3GkCNAfRMAFNUzAaJqBpBobD/kgReyRD/rrY69uYRqA7DLBipmBpsXP/OJ85Cex6q2qZo6FZ iBfFajTi69MNQDJyMFLxByyz/Hny/mmhf4o/DQBpH4v6ep7ae+sVH+yEYyl06kXqidTvnwzlQwro F8cP3XDwXovkKyhILfAPqYfeRVtTj+43f2TND9HeWAv51z6gkQ6AUrUUAJSWCkA9DdCwGioeifA8 KlXrh9pIDYhSUI1IgrFLJ1UV/3lI8GwALOwL8b5pwPQOuNZvAXjysMJbp6KE8MdG3rOKtqtFb2xr GgTYe3roVf7jIf4jUXGKPyF+ZpS6Ti6Y0XXj3o6JZnQwG7a+vEKpcDuAcp6iQNHWWIsCjW3Flhpw RAJiLXSYBYJm4aDe4m98XjIaEF8fjzaY36dHBkSAYii4sDfA8r7JZQaOA9h5DNjzTjXZt94UfiNU bw7MY2v1W+sFYPkMJPP+9oI/v/iPvOhvZK1/ij8jAMRPMQzU4hmVG3eu7P9RpxyTdPpF27B53x1K 5GHXwYrxQg/569vooX+zZwAymQDNLNhMACzpAV8vAsMo6NuZ73eJv/lYCgULewMs7gPmTcQfPwA/ ewd46VjVUVin7GbA0fK3pgMSIh+PDrhC/3nE39bdzyn+9QXtyvtT+GkASAahFOCyGX33Pr9q8g33 O6UNANCsB8hiArIVBbZgAurPA0N0A7Gvs4m5ntsPYmbCYiwMgbcZAliMyvAxCzCtGGJeD7CoAiwY hzvlLQB7jwP/+24Vp4fqguUSV9dwzHCkA4xJedKiA2ZIP3KMBGkb3KcV8R+Loj+KPw0Aycai3sr2 vbetuKbTjqswFS7ejMrhLxw5NbtfFD6kLCYgUz0AjDQ/FFSzQCDxOlETUK8fiERBVC33DyWIapUF tW6C9e8Tqf3qC4x8PxqRBC0yoS/XahYa+X99G2ksG35UNTNQ3z2pdy2U+r4ePTOEo2cEe47U1gci mFEKcEkvMKcETBOge4TXJkItnH+kCrx+Cth3QuHY2Wj4ugzPkofkiHnKIbrWcfeVmZP3GYBsom+L ALQi/qD4EzJhmdVdOrLgnGnX7+3AY5OpchHXbX/1fBmKnkU9uj3mkQDYUwNmCiDxOhEZyLadWFr8 jfQCrGmA2nbQ9q95rJI49liSRDtXxUBQKgQoBkAYNM2HAnByUOF0BAxVo4ToKW3+BcCWJ9dF0Sa2 7shAZE0VZIkS2AfxiVzfjfw5/9gxe00BxZ8wAjDWVLoKQwtnTFv+/M1LXujE45OpdDE3bNl3pYJs BlAZUffANpiApKjHuwq6Qvm2kH/SCLjz/vH9lfhxafvdWBE/fsl0M6mUZXor3yX+unjqwpuMDqS0 zG15e0PInT0JfK1967J2in8zCkLxpwEgo08pDNTiGdM/tmPl5d/v1GOUqXZR123Zt1Ig/wogzDdc 8OiZAMTE3d0at1XvJ5ZZIgGuz7M/xlv7cRMgycJIsZ2jbLeROR9DYh4GFWvXxl4Pi6e1tZ1lmmab KfBECJA+82NiXH+KP6EB6AhCEbxnet+Xd61e/s1OPk6Zihd3w+b9n1WC+1wnIPOcAR4TACS7CCIW CYgXB/pSAt7WvcsIxAyBbkDcIX/dnJhdIhPnQFw3kKSIkEqKkvKlApQ2O2NS/LOkBKIUc5CcxMmW 48/S2tcjEm0W/5yKTvGnASDZubiv8sCeW1f8Vqcfp0zVC7x+y76/AOSLmUxArNWb1wRoVfcu4beY gCzpAVdr32UgIO7JjGB5DiNC4DoP5gmUFOHJWvgWb1l76gBy1gSoPF33lF/wfcP5xo+H4k9oACYD F/VWfvLCbSuunwrHOmUNwHSl5OatA98B8Om2mAAkhw0efg57XQAM8beF+31hfHe43zAK0Ir7tO+E JVoBJAsBodUOZL2RfHUA5mA3emsfcI+aN5wisBbeZRRyb6TA/V6zpR8zJonIhjm1dLr4288ZxZ8G gAagnVzQW9714q1X/EKtK1bnU5iqF/odEaU2qrtk7v5eQDakdQ+EZVhg0bZJdBFMDBtc71Jo6W+o lKp3y2s4hsZQwvWuevXOiMOiPry9Zhga62PPjfXKMCVo9lA0uxzqy6GMWgjVPClZ8/9WQcpYBzAs lo7UgD0dYDMAGVr6vvfAl5LQhN6IBMSPyy7mFH9Cxpf5Pd3/d8XQFe97cYqI/5SOADS487nnuo6e mP19CFa1KxIAT3EgPCkBwB2ytw805E4nwPEZgK0QMLnv0PbdfvNItrtJE/REJMBZBBivDYi3/i3d 7VJa784Z+Rytf8D8jLhxMSMUsX2m+BNGACY8c3q6B5b39F362C2XnplKxy289MCnNr3SfTIM/gXA jWNjAoy6AOSpE4BRTJheTwCLiQDsNQAJQ6AdmG1Z/PykFQDGn6mEKYi39uPmQDkKA90td+QSfsf2 qd/tKfaj+BMagAnP3HL3wdnd0aXPrbrq5FQ7dhqAOut27y7i7b5HRKnb8puAZBdB21TCMIsDjbx7 rE5Ar8yHu0gQKUYAFlMA6/fFaxRgGBSYdQDeRr9/RACb8PvFP9niBmyjApqCnjIwj62I0GUI6juS FvKn+BMagMnD/J7y/v7SnMt/sGr+yal4/DQAugnYqEKZO/BdAJ8cfRMQF+PYshy9BoCMRgC+bn6W QX/M/ZBkm14f/EcsJ8bdJVAlcv+mWOmCHXuttfITrWynOKf0y3cIP7TPc7b6LYYkvdKf4k9oACag +L/4/suLyzcuW3Z2qp4DGgCDP1Yq+Hmtd8BvZzIBsA8WpLecbSYAFtGPt8A14Tdf20L7lmiCzUTA YQbgMCbx4/XVAKTcVcotVGaL2WxF28TVFGynIXB10XMYCbPCX2/l66/j+5bM98dNjHIaH4o/oQEY exZWyjt+47Yrrvq6SDSVzwMNgIXpSsnNWwb+FIJ7RsUEwF8XkBYN0I1BMqxvGgHE+/T71hm5fnPw H9v+ucL+/lSAShW+uHDaWtcW0U+0zN21AUCO8L71s+NmwBfy14/Yle6g+BMagPEQPMFFfeV/37N2 xU2YQtX+NAAtsH7rvk9ByX0AukbDBKRFA2zhd2vRoEe4bSMRuqMMyTy/WejnGvhHWr6lHGYgy8BA sM0boLy1Aqmpg0TNgLveILmfoxnyp/gTGoB2Eorgwr7ef/j52v5P82zQAGRi3ZP7f0UCbAQwfSxM gBkNiAu2vTDQagRixkK8KQfAMuufttJW25A89uy3krUbYGJ2wKayxg1AUpBtEYNWhN/Xwne1+sdT /GkAaABINophoC6sVL70s7X9f86zQQOQiw1bX16hVPgDAAvzmgCzcl48RiGtpwC8RsAWUUjm9q2f Z8n322YANI1B8uhaESzlMQCIjwiYIvpIhPzdtQI2Q2EzA85WP+z5foo/oQGYWPQWCoMX9FbW7Fi9 7DGeDRqAlrhj02uzquHgIwBuyG8CRhoNyGgEHOYA8BT6pUQfEgYgxzTAWQRLGWEAZdlW2dZ5RD8h 8hYjYV2W4XtSW/0Uf0IDMGE4r1x68+JS5erNq5e8zLNBAzAi1m1UocwZ+BMIviT2nnCJBZLDBGQy AmboXhP9Zis/uSzdDLgm/Wm1ADCnATDEPhEN8FTce/PxKqV1P/we15DE+Vv9FH9CAzDewia4YFp5 W9+CFdc9d5UM8ozQAIyeEdg8sFpEPSjA9CwnNEtKwFpxD+QzAhkNgs0M2AyBbca/dAMgKcKlvIKW DJ+7egR4RN8xmFCW1r1L+O2DFiVFPFulP8Wf0AC0i2IYqIt7K994fk3/13k2aADaZAL2XSQiDwtw TZYTmyklAFhC7+IxCa6cPpIV/rYIgPVzk+MY+IReWriTlHLKYVzkEqJrH1vfVTBY29YXTXALvy0a YBV+ij+hAZgwnFPqOrawr++Wn96yZBvPBg1AW/nlTaowOxj4qgi+CiBMPbmelIBLkBNGwFaspxkB X1TAFxnwfb+t1E9GeOcoi6opR7TAPriOT/QtrX2X8FsiDnlb/RR/QgMwvgQCzO/peXrRudM/sum6 i07zjNAAjBnrn9z3gSCQhxVwcV4T4IsGWFv2KREB+wh+fjNgiw7YTIH9hvENAJxF2JQ3OpCIACjX EMKWlrsh+rZ1eYXf/t6sYk3xJzQAo01voTC4sFK5c9eaZd/j2aABGBd+fdMrM4ph8C3UhhCWtJPs Swm4xDmLEUiLCsRF3VGPADP87+7slzocsMouaLZwv3/egKSwpwq/b7Q+rwEZSci/dfGnASA0AK6f GMH8SnnHPJGbnrptxRs8IzQA4x8N2Lb/2kDh75XCktQTnRINMFvgdrGW7Nt4zYDfhNiNwUhvI5Wa CkiIu1IOw6ALs8UUWIQ/tk2OVj/Fn9AAjC/TisUz55dLX9i1pv8+3hU0ABPLBGx/tRxUo68phbsB FPJGA6w5d69pMP73Cb1hBtzbJSMEo3njZIkC6N3zsop+W4Q/pdVP8Sc0AGNDQQTnV3qeOP+cwtpN 1y07zjuCBmACRwNevkyi8F4AK0cjGpDbCKSagfq3SPpNIZ4wwEjGAdCVPK3vfFKMs4p+HuHPHplI F2mKP6EBGC1mloqH5/SWPr5zZf+PeCfQAEwaNmzdf4NS+CsBlqWdeFt1vaSV3nlC/2lmwLm9jO3N kj5KoGMOAUs0wNnatwh/e1r9IxN/GgBCA9BkWrHrzLxy+Wv/vWb5t3gH0ABMzmjA7t1FOVz5XYh8 BcDMvNGAVoxAK2bAFiHwmZNRFX8FVzvcbRKytPZbFH6KP6EBGD+6wzCa29O98ZJSzycfu+XSM7z6 NACT3whserNXCqd+BwpfBjAjbzQgqxHI0tK3GQLv/rTl9lG5RNZXpe+PHOQTfoo/oQEYH4pBoOb1 lDafGxbWPb2m/xCvOg1Ax3Hrthf6ulX5c1D4ChxTDY/YCHijCSntfRnbG8Upts5uhJ7ogErL1ytv 9KFV4R/+X43+eSCk0w1AMQzU3HJ58+yu7ju2r7rsAK82DUDH84lNr82qhmfvAuTzAM4bLSOQxwz4 DIErutAOB6CyyatT9J1RgxEKP8Wf0AC0j3IhrJ7XU358Bnruenbt4gFeZRqAKcf63buLwdu965XC PQIs9V0x8azMHL6X9Bsgb52/jJKwKc+78ot+uvCPmvjTABAagMz0dhXOzi53b5w1q3jXtmuXvMur SwMw5fmGUsHurftvDiCfAXALjHEEshkBnxVwFx7muSFkhLeRyih3yvEiW5h+ZMJP8Sc0AKNLIIKZ peLB6cXit3evWf5nEIl4VWkAiIXbt+ybVxD5TVH4jG2egSxGwG8FMgzlO0Y3icqwMK/op4lz661+ iwFQbTh+QgzePH0G214/POn2u1IoDM3uLm2udIW/t2PV8l28kjQAJEdUYM+2gesFsl4pdSuAc60X U9Ivt4z0pmjHHaNaE8V2k8MbFQAAAjVJREFUCP94iD8NAMnKscFB/PjA5Bj2vhSG0bml0u7eLnxn 6eoVf7tRpMorSANARsCGjSrE/IEPSBUfg+DjAGbljwpkNwNjcaOolrdLLwrM+z25xZ+tfzKGRAp4 bOA1DEYTM3JeCgN1Tqm0d1qxcH/frHf/cvs115ziVaMBIO01A78GwQ0AroRRuyc5boWJeDOoPEta jCS0Iv5s/ZPxYufhI3jl+MkJsz/TS11n+rq6dlW6uh7qPTXtu9tvX0jRpwEgY80nNh9cGMnQTQB+ CZAPAWpRa2ageWuM5Q2iWl2q2hFdGBvxpwEgeTk1VMUTBw9hKBqfO6enEA72FQv7u8OuJyvF7r/Z ufI9O3lVaADIBOP2TQcWdIXRtQrqGgC/iNpcBD35zYD9lmnlM9RoSbAaPVFVLWxJA0DGk9dPncbT h97O3JumVbqCQFW6wuOlsPBSdxj8pFIsP0DBpwEgk5AN/6zCYO7BSyJVfa9A3gtgOUQtFuBCAH0T db+ztvZbEdOWxZ8GgIwzb54+g5++eQRnqiOvresKAlUuBKdLYeGtouClYhA+UygUHlu6aumTLN4j hBBCCCGEEEIIIYQQQgghhBBCCCGEEEIIIYQQQgghhBBCCCGEEEIIIYQQQgghhBBCCCGEEEIIIYQQ QgghhBBCCCGEEEIIIYQQQgghhBBCCCGEEEIIIYQQQgghhBBCCCGEEEIIIYQQQgghhBBCCCGEEEII IYQQQgghhBBCCCGEEEJIe/h/HSxlNPOQ1fYAAAAASUVORK5CYII= "
       id="image2425"
       x="0.040850084"
       y="1.1033088" />
    <path
       style="fill:#000000;stroke-width:1.22235"
       d="M 127.73579,242.10851 C 100.24671,239.29914 70.117835,221.11116 52.678882,196.79868 46.667169,188.41747 38.453072,170.21515 35.277232,158.2369 30.773088,141.2487 30.729065,124.17929 35.1434,106.34463 37.991622,94.837325 43.058696,81.900997 47.344575,75.194818 53.88088,64.967361 56.722408,61.429879 65.448846,52.656407 74.815622,43.239144 79.084933,39.9428 89.617004,33.996115 c 8.411177,-4.749173 21.589736,-9.574979 29.562326,-10.825319 5.14697,-0.807199 55.73184,-1.124765 143.62637,-0.90167 l 135.68108,0.344387 8.55646,3.422904 c 21.25437,8.502536 37.49982,19.96492 50.09056,35.342659 7.92233,9.675947 17.08331,26.81085 20.77275,38.853794 4.72559,15.42511 4.82044,50.45962 0.16679,61.5974 -1.08197,2.58949 -1.96721,5.5198 -1.96721,6.51181 0,3.10217 -9.91147,22.25751 -15.25983,29.49178 -14.63875,19.80061 -33.76705,33.12584 -59.46942,41.42781 l -10.22422,3.30246 -127.73579,0.1782 c -70.25468,0.098 -131.31117,-0.18722 -135.68108,-0.63382 z m 252.41571,-41.1636 c 17.89407,-4.3714 34.96406,-17.36522 44.33039,-33.74465 8.58031,-15.00489 11.18578,-37.102 6.25951,-53.08717 -3.28886,-10.67195 -5.64393,-15.252298 -12.49518,-24.301733 -9.63726,-12.729328 -22.05756,-20.775998 -38.57989,-24.994522 -11.70907,-2.989591 -20.56265,-3.129236 -32.27704,-0.509101 -23.00548,5.145592 -41.69671,21.44966 -50.67902,44.206516 -2.94667,7.46546 -3.2441,9.7358 -3.23867,24.72213 0.006,15.84848 0.16125,16.86468 3.92869,25.66939 10.3708,24.23716 29.61317,39.29438 56.26389,44.0267 6.77168,1.20244 16.38091,0.48138 26.48732,-1.98756 z"
       id="path81"
       transform="scale(0.26458334)" />
    <path
       style="fill:#000000;stroke-width:1.22235"
       d="M 117.3458,487.78994 C 95.26185,481.9309 77.899518,471.39722 62.481076,454.50364 50.151689,440.99467 42.294284,426.29388 37.083156,406.98549 33.175545,392.50692 33.151669,368.09833 37.031029,353.69515 48.401549,311.479 81.682598,279.92788 123.22765,271.979 c 12.4832,-2.38843 255.76524,-2.85504 269.23332,-0.51639 32.69332,5.67701 63.66649,29.32954 79.10211,60.40598 6.4975,13.08139 9.62602,25.92743 10.33518,42.43738 0.77959,18.14959 -0.82637,30.2706 -5.79676,43.75099 -11.90783,32.29579 -35.68271,55.50587 -69.80804,68.14969 l -9.02904,3.34536 -135.68108,0.25401 c -128.77494,0.24108 -136.1166,0.13846 -144.23754,-2.01608 z m 58.5168,-41.30321 c 11.40885,-4.06701 19.60238,-9.54995 28.52518,-19.08845 12.79553,-13.67847 18.69147,-28.77453 18.69147,-47.85796 0,-16.97911 -4.75091,-31.15 -14.81807,-44.19891 -12.29113,-15.93159 -35.68761,-27.3622 -55.85267,-27.28746 -15.9199,0.059 -35.47167,7.7289 -47.33032,18.56703 -23.862628,21.8091 -30.369598,54.77204 -16.478806,83.47814 15.851306,32.75762 53.457166,48.43877 87.263216,36.38761 z"
       id="path120"
       transform="scale(0.26458334)" />
  </g>
</svg>
